<?xml version="1.0" encoding="UTF-8" standalone="no"?>
<!-- Created with Inkscape (http://www.inkscape.org/) -->

<svg
   width="240.86183mm"
   height="202.32205mm"
   viewBox="0 0 240.86185 202.32206"
   version="1.1"
   id="svg5"
   inkscape:version="1.1.2 (0a00cf5339, 2022-02-04)"
   sodipodi:docname="logo_chains.svg"
   inkscape:export-filename="/home/svbaelen/Documents/work/mappalink/mappalink/management/website/ml-public/site/src/assets/images/logo.png"
   inkscape:export-xdpi="96"
   inkscape:export-ydpi="96"
   xmlns:inkscape="http://www.inkscape.org/namespaces/inkscape"
   xmlns:sodipodi="http://sodipodi.sourceforge.net/DTD/sodipodi-0.dtd"
   xmlns:xlink="http://www.w3.org/1999/xlink"
   xmlns="http://www.w3.org/2000/svg"
   xmlns:svg="http://www.w3.org/2000/svg">
  <sodipodi:namedview
     id="namedview7"
     pagecolor="#ffffff"
     bordercolor="#666666"
     borderopacity="1.0"
     inkscape:pageshadow="2"
     inkscape:pageopacity="0.0"
     inkscape:pagecheckerboard="0"
     inkscape:document-units="mm"
     showgrid="false"
     inkscape:zoom="0.64703905"
     inkscape:cx="347.7379"
     inkscape:cy="459.01403"
     inkscape:window-width="1920"
     inkscape:window-height="1014"
     inkscape:window-x="0"
     inkscape:window-y="29"
     inkscape:window-maximized="1"
     inkscape:current-layer="layer1"
     showguides="false" />
  <defs
     id="defs2">
    <clipPath
       clipPathUnits="userSpaceOnUse"
       id="clipPath8452">
      <rect
         style="fill:none;fill-opacity:0.254425;stroke:#000000;stroke-width:1.943;stroke-linejoin:bevel;stroke-miterlimit:4;stroke-dasharray:none"
         id="rect8454"
         width="31.319584"
         height="33.786728"
         x="67.617455"
         y="165.04402" />
    </clipPath>
  </defs>
  <g
     inkscape:label="Layer 1"
     inkscape:groupmode="layer"
     id="layer1"
     transform="translate(75.010182,-61.114508)"
     style="display:inline">
    <g
       id="g5175"
       style="display:inline;stroke:#031d3a;stroke-opacity:1"
       transform="translate(37.041669,15.875)">
      <text
         xml:space="preserve"
         style="font-size:39.5064px;line-height:1.25;font-family:monospace;-inkscape-font-specification:monospace;display:inline;fill:#031d3a;fill-opacity:1;stroke:#031d3a;stroke-width:0.987658;stroke-opacity:1"
         x="32.537025"
         y="123.66304"
         id="text2998"><tspan
           sodipodi:role="line"
           id="tspan2996"
           style="fill:#031d3a;fill-opacity:1;stroke:#031d3a;stroke-width:0.987658;stroke-opacity:1"
           x="32.537025"
           y="123.66304">{}</tspan></text>
      <circle
         style="display:inline;fill:none;fill-opacity:0.254425;stroke:#031d3a;stroke-width:4.96299;stroke-linejoin:bevel;stroke-opacity:1"
         id="path846"
         cx="56.321884"
         cy="111.87671"
         r="31.755148" />
      <image
         width="51.815998"
         height="51.815998"
         preserveAspectRatio="none"
         xlink:href="data:image/jpeg;base64,/9j/4AAQSkZJRgABAQEBLAEsAAD/4QDTRXhpZgAASUkqAAgAAAABAA4BAgCxAAAAGgAAAAAAAABE YXRhYmFzZSB0aGluIGxpbmUgaWNvbi4gU2VydmVyLCBzdG9yYWdlLCBkaXNrLCBoYXJkd2FyZSwg YmlnIGRhdGEgaXNvbGF0ZWQgb3V0bGluZSBzaWduLiBDb21wdXRlciB0ZWNobm9sb2d5IGNvbmNl cHQuIFZlY3RvciBpbGx1c3RyYXRpb24gc3ltYm9sIGVsZW1lbnQgZm9yIHdlYiBkZXNpZ24gYW5k IGFwcHP/4QXTaHR0cDovL25zLmFkb2JlLmNvbS94YXAvMS4wLwA8P3hwYWNrZXQgYmVnaW49Iu+7 vyIgaWQ9Ilc1TTBNcENlaGlIenJlU3pOVGN6a2M5ZCI/Pgo8eDp4bXBtZXRhIHhtbG5zOng9ImFk b2JlOm5zOm1ldGEvIj4KCTxyZGY6UkRGIHhtbG5zOnJkZj0iaHR0cDovL3d3dy53My5vcmcvMTk5 OS8wMi8yMi1yZGYtc3ludGF4LW5zIyI+CgkJPHJkZjpEZXNjcmlwdGlvbiByZGY6YWJvdXQ9IiIg eG1sbnM6cGhvdG9zaG9wPSJodHRwOi8vbnMuYWRvYmUuY29tL3Bob3Rvc2hvcC8xLjAvIiB4bWxu czpJcHRjNHhtcENvcmU9Imh0dHA6Ly9pcHRjLm9yZy9zdGQvSXB0YzR4bXBDb3JlLzEuMC94bWxu cy8iICAgeG1sbnM6R2V0dHlJbWFnZXNHSUZUPSJodHRwOi8veG1wLmdldHR5aW1hZ2VzLmNvbS9n aWZ0LzEuMC8iIHhtbG5zOmRjPSJodHRwOi8vcHVybC5vcmcvZGMvZWxlbWVudHMvMS4xLyIgeG1s bnM6cGx1cz0iaHR0cDovL25zLnVzZXBsdXMub3JnL2xkZi94bXAvMS4wLyIgIHhtbG5zOmlwdGNF eHQ9Imh0dHA6Ly9pcHRjLm9yZy9zdGQvSXB0YzR4bXBFeHQvMjAwOC0wMi0yOS8iIHhtbG5zOnht cFJpZ2h0cz0iaHR0cDovL25zLmFkb2JlLmNvbS94YXAvMS4wL3JpZ2h0cy8iIHBob3Rvc2hvcDpD cmVkaXQ9IkdldHR5IEltYWdlcy9pU3RvY2twaG90byIgR2V0dHlJbWFnZXNHSUZUOkFzc2V0SUQ9 IjEyMTk3NjAxMTMiIHhtcFJpZ2h0czpXZWJTdGF0ZW1lbnQ9Imh0dHBzOi8vd3d3LmlzdG9ja3Bo b3RvLmNvbS9sZWdhbC9saWNlbnNlLWFncmVlbWVudD91dG1fbWVkaXVtPW9yZ2FuaWMmYW1wO3V0 bV9zb3VyY2U9Z29vZ2xlJmFtcDt1dG1fY2FtcGFpZ249aXB0Y3VybCIgPgo8ZGM6Y3JlYXRvcj48 cmRmOlNlcT48cmRmOmxpPkJSTyBWZWN0b3I8L3JkZjpsaT48L3JkZjpTZXE+PC9kYzpjcmVhdG9y PjxkYzpkZXNjcmlwdGlvbj48cmRmOkFsdD48cmRmOmxpIHhtbDpsYW5nPSJ4LWRlZmF1bHQiPkRh dGFiYXNlIHRoaW4gbGluZSBpY29uLiBTZXJ2ZXIsIHN0b3JhZ2UsIGRpc2ssIGhhcmR3YXJlLCBi aWcgZGF0YSBpc29sYXRlZCBvdXRsaW5lIHNpZ24uIENvbXB1dGVyIHRlY2hub2xvZ3kgY29uY2Vw dC4gVmVjdG9yIGlsbHVzdHJhdGlvbiBzeW1ib2wgZWxlbWVudCBmb3Igd2ViIGRlc2lnbiBhbmQg YXBwczwvcmRmOmxpPjwvcmRmOkFsdD48L2RjOmRlc2NyaXB0aW9uPgo8cGx1czpMaWNlbnNvcj48 cmRmOlNlcT48cmRmOmxpIHJkZjpwYXJzZVR5cGU9J1Jlc291cmNlJz48cGx1czpMaWNlbnNvclVS TD5odHRwczovL3d3dy5pc3RvY2twaG90by5jb20vcGhvdG8vbGljZW5zZS1nbTEyMTk3NjAxMTMt P3V0bV9tZWRpdW09b3JnYW5pYyZhbXA7dXRtX3NvdXJjZT1nb29nbGUmYW1wO3V0bV9jYW1wYWln bj1pcHRjdXJsPC9wbHVzOkxpY2Vuc29yVVJMPjwvcmRmOmxpPjwvcmRmOlNlcT48L3BsdXM6TGlj ZW5zb3I+CgkJPC9yZGY6RGVzY3JpcHRpb24+Cgk8L3JkZjpSREY+CjwveDp4bXBtZXRhPgo8P3hw YWNrZXQgZW5kPSJ3Ij8+Cv/tAP5QaG90b3Nob3AgMy4wADhCSU0EBAAAAAAA4hwCUAAKQlJPIFZl Y3RvchwCeACxRGF0YWJhc2UgdGhpbiBsaW5lIGljb24uIFNlcnZlciwgc3RvcmFnZSwgZGlzaywg aGFyZHdhcmUsIGJpZyBkYXRhIGlzb2xhdGVkIG91dGxpbmUgc2lnbi4gQ29tcHV0ZXIgdGVjaG5v bG9neSBjb25jZXB0LiBWZWN0b3IgaWxsdXN0cmF0aW9uIHN5bWJvbCBlbGVtZW50IGZvciB3ZWIg ZGVzaWduIGFuZCBhcHBzHAJuABhHZXR0eSBJbWFnZXMvaVN0b2NrcGhvdG//2wBDAAoHBwgHBgoI CAgLCgoLDhgQDg0NDh0VFhEYIx8lJCIfIiEmKzcvJik0KSEiMEExNDk7Pj4+JS5ESUM8SDc9Pjv/ 2wBDAQoLCw4NDhwQEBw7KCIoOzs7Ozs7Ozs7Ozs7Ozs7Ozs7Ozs7Ozs7Ozs7Ozs7Ozs7Ozs7Ozs7 Ozs7Ozs7Ozs7Ozv/wgARCAJkAmQDAREAAhEBAxEB/8QAGwABAAIDAQEAAAAAAAAAAAAAAAQFAgMG AQf/xAAYAQEBAQEBAAAAAAAAAAAAAAAAAQIDBP/aAAwDAQACEAMQAAAB7MAAAAAAAAAAAAAAAAAA AAAAAAAAAAAAAAAAAAAAAAAAAAAAAAAAAAAAAAAAAAAAAAAAAAAAAAAAAAAAAAAAAAAAAAAAAAAA AAAAAAAAAAAAAAAAAAAAAAAAAAAAAAAAAAAAAAAAAAAAAAAAAAAAAAAAAAAAAAAAAAAAAAAAAAAA AAAAAAAAAAAAAAAAAAAAAAAAAAAAAAAAAAAAAAAAAAAAAAAAAAAAAAAAAAAAAAAAAAAAAAAAAAAA AAAAAAAAAAAAAAAAAAAAAAAAAAAAAAAAAAAAAAAAAAAAAAAAAAAAAAAAAAAAAAAAAAAAAAAAAAAA AAAAAAAAAAAAAAAAAAAAAAAAAAAAAAAAAAAAAAAAAAAAAAAAAAAAAAAAAAAAAAAAAAAAAAAAAAAA AAAAAAAAAAAAAAAAAAAAAAAAAAAAAAAAAAAAAAAAAAAAAAAAAAAAAAAAAAAAAAAAAAAAAAAAAAAA AAAAAAAAAAAAAAAAAAAAAAAAAAAAAAAAAAAAAAAAAAAAAAAAAAAAAAAAAAAAAAAAAAAAAAAAAAAA AAAAA8MDXZieAGRnGa5HoAAAAAAAAAAAAAAAAAAAAAAAAAAAAPCHZB1IdRbI1R7NBqs8AAAAM13R viTLKiXLNlnZblAAAAAAAAAAAAAAAAAAAAAAA8IVlRuVWpXamtAM1kxIjfLuNkbFyPYAxrA1pqrT UdI1aLABMls822xbbOtgAAAAAAAAAAAAAAAAAAABgUW8890zBsEiWyzbGWdmzYkS+gAAAAAAAGsi WQdSBZW6lfqeGa3eL0fPU6UAAAAAAAAAAAAAAAAAAVupxvXESyVLe41c4s6X0AAAAAAAAAAAAA1J U7lJqU+8joeeur57yAAAAAAAAAAAAAAAAAK+zg++NkdZz1d416AAAAAAAAAAAAAAAARbOV6ZpN5u sa7XlsAAAAAAAAAAAAAAAADieuKrc+g8NypQAAAAAAAAAAAAAAAAAOS6Y53pn6Dw6TpQAAAAAAAA AAAAAAABwXbnEr6Jw6bAAAAAAAAAAAAAAAAAADm+meU6Y7nj0ts0AAAAAAAAAAAAAAAAcF251upY ZvY8tzpQAAAAAAAAAAAAAAABic50zy3THh3PHpbZoAAAAAAAAAAAAAAAA4Ltzg6eGKW+dX3O22dZ gAAAAAAAAAAAAAEOyk3Of3mPZIlj2dzx6W2aAAAAAAAAAAAAAAAAOC7c8K7bjvmemaPcwTNbPNs8 2xzZ2W9QAAAAAAAABiQ7IGpW6lXqQ7BOl6XnrOOJ7Y7nj0ts0AAAAAAAAAAAAAAAAcF254V9A4dB qKfeafUq9TTYBvllxJlkRvXdGw2S5Hp6eGJgmutRpqPZHqJZFsxB6T822zbnGp8vpT6zxHbHc8el tmgAAAAAAAAAAAAAAADgu3PCvoHDoAB4RLK/Ug2Q6iakatSAAAAAADIkSyolyzc2fLPzdoABT6zx HbHc8eltmgAAAAAAAAAAAAAAADgu3PCvoHDoAK3U3RLl9AB4YmizUaqwTExoexkZrmbY3xtX0A0p XaTokygAU+s8R2x3PHpbZoAAAAAAAAAAAAAAAA4Ptz0V9C4dPQaz5r6OXhtWdlMllyyokS743y7Q AAeA9BGsgWRqkRcZ1wPbnX6g6LnrreewAKPeeM647vj0tM0AAAAAAAAAAAAAAAAcx0zy/THTc9dP z3kCvsqtyvshakSzEAGa/R/PvaoHh8+784teHecd2Ob8/wC3OBqCdL9A4dOU6Y9LHNts62AAhWcR 2xpr6L5+m0AAAAAAAAAAAAAAAAGJxXbFPrM2XpOerrGtgAMSPZFqPZoMjoMa9APDl+mI9bI6bnre sCyPZJlly5gAAEGznumaHecl7bju1zQAAAAAAAAAAAAAAAAB4cN2xVayNi22La5tnmzJfQAAAAAA AAAADUV2pV6zT7kKwXWNdVz1LlAAAAAAAAAAAAAAAAAGJxfXFNvM2W+xqtsqdzBBtWdlMllyyokS 743RsX09AB4DA1WaSPUayLZDqFqQ7AJstzi3uNTJQAAAAAAAAAAAAAAAAABzHTPL9MdNz10/PeQM Cv1K3Ur7IOpEs8AABkZL6enhiYp4AADdLNifLYZtnmypQB4RbJcoAAAAAAAAAAAAAAAAHB9ucevo fDp6AAADEjWRqj2aTTWtNdYnh4emRmbI2rujfEmWTG5QAAAKnU4btz73j0ss0AAAAAAAAAAAAAAA AcF251up2nLd3jQAAAAAAAAAAAAAAAAA0pxHbFbqdzx6W2aAAAAAAAAAAAAAAAAOC7c63UF1jXS8 9WEoAAAAAAAAAAAAAAA1lFvPM9Mx7B3PHpbZoAAAAAAAAAAAAAAAA4Ltz01a5vP7z4TpbrGrXNsM 3IAAAAAAAAAAAAj2VepT6lRua0mS2+LznTPc8eltmgAAAAAAAAAAAAAAADgu3PCvoHDpFsoNyk3m JYM1n5T5ZmbLllRIl2HoAAAABiaLI1RbIdQrK/Ui2DIts6vuduM6qNZ4jtjuePS2zQAAAAAAAAAA AAAAABwXbnhX0Dh0A8IdlXqVupX6kSzwAGa7Y2GyMj09PDEwrWaq1p4ADas/KwzbTNs862AFPrPE dsdzx6W2aAAAAAAAAAAAAAAAAOC7c8K+gcOgAAAwIlkSyNUezTWk11rTGvDw9MozNi7Y3G+WTEqW XG+X0AAAp9Z4jtjuePS2zQAAAAAAAAAAAAAAABwXbnhX0Dh0AwOH7c9stjLOymyyZfQAAAAAAAeA 9KXWarcrtS/566HGgAKfWeI7Y7nj0ts0AAAAAAAAAAAAAAAAcT1xVbn0HhuVKMTjOuKrc1IBkSZZ Eb5ZUdTz3kACj3mJXh0XO7l5bpin3I1TMu949Pmvo54JOzen56uc6AA5LpjnemfoPDpOlAAAAAAA AAAAAAAAAFfZwffGyOs56u8a9B4RbINkPSJZGqPZoPT6Fw6bQDw+bejnqQd7x6WWbyXXFfZJltc2 /wAa0JsXMAAi2ct0zR7zdY12vLYAAAAAAAAAAAAAAAAArdTjOuItkqW9xq6xZsvoAAAAABqME2Ls AAAAANRU7zSalPvPh0ONdZy3kAAAAAAAAAAAAAAAAACt1ON64iWbF1oJEtnm2Es/Nmxvl9AAAAAA AAMCHZC1K+yt1K/U8M1xTw6HGur5bzAAAAAAAAAAAAAAAAAK6zhO+NsdXz1d41BsqNyq1K/U1oBm smJMu+NptjNcoyB4Y1ia01VorQkao9gAly2ebbZtvjWmzlumaPebrGu15bAAAAAAAAAAAAAAAAA4 nriq3PoPDcqUADwh2QdSHUSyNZHrRWtPAAAADNdsSIkLKymSzZZ2W5QAByfTHOdM/QeHSdKAAAAA AAAAAAAAAAAOC7c4lfROHTYAAAAAAYmBhZgeA9PTONi5HoAAAAABzXTPK9Mdzx6W2aAAAAAAAAAA AAAAAAOC7c63UsM3sOW58oAAAAAAAAAAAAAAAAwOc6Z5fpjw7nj0ts0AAAAAAAAAAAAAAAAcF25w tMTBLfOr7nbbOtgAAAAAAAAAAAAABCspNyg3mPZIlj2dzx6W2aAAAAAAAAAAAAAAAAOC7c8K7fjv mumaLc1pmtlm2ebY5s6N8voAAAAAAAABgQ7IGpW6lXqRLBYZvSY1lHE9sdzx6W2aAAAAAAAAAAAA AAAAOC7c8K+gcOg1lPvNPqVeposA2rLylSyI3rujYbIyX0AxTA11qNNkeo1RbItngPSwzbbOrnFn yin1niO2O549LbNAAAAAAAAAAAAAAAAHBdueFfQOHQADwi2V+pBqHZFsi1psAAAAAAGayIlSy4m5 s+Wfm7AACn1niO2O549LbNAAAAAAAAAAAAAAAAHBdueFfQOHQAVOpuidLkAAYmmzSa61mKeHh6ZG a7I2m6Ni+g8I1ldqWGbLlAAp9Z4jtjuePS2zQAAAAAAAAAAAAAAABwfbnor6Fw6eg1nzX0cvDImy zc2XLJiRLviTG9QAPAYmYIlldqRqkxd4189784dg6PnrrOewAKPeeM647vj0tM0AAAAAAAAAAAAA AAAcz0zy3THS89dRz3kCFZV6lfqQbIemtABkfR/P03KB4fO+/OLYO949LLN+f9ucDUE/N7/j05jp n0sc2zzcwAQbOI7Y119E8/TaAAAAAAAAAAAAAAAADE4vrim3mbL0fPV3jWwAHhpSNUezRWReY16A eHNdM6LNkvR87uWHZoqREmXIAAHhBs57pmh3nNe247tc0AAAAAAAAAAAAAAAAAeFDvPMdMxrM1ts W2zbPNmS+gAAAAAAAAAAGpK3Sr1mo3IVnpdY11XPUqUAAAAAAAAAAAAAAAAAADEp9ZpNyp3NaDYs 7KbLLlkxJl3RujYuR6ADw8MDVZpNFkaolkPSFZEsAnS3ONXuLLlAAAAAAAAAAAAAAAAAAAAAGJXa ldqV9kHUiWYgAAyPVyB4eGKeAAA3yzYn5thLZ5smUAAAAAAAAAAAAAAAAAAAAAAAAAYkeyNUezQa q1JhWJiD0yMjZG1d8b4kSypdh6AAAAAAAAAAAAAAAAAAAAAAAAAAAAAAAAAAAAAAAAAAAAAAAAAA AAAAAAAAAAAAAAAAAAAAAAAAAAAAAAAAAAAAAAAAAAAAAAAAAAAAAAAAAAAAAAAAAAAAAAAAAAAA AAAAAAAAAAAAAAAAAAAAAAAAAAAAAAAAAAAAAAAAAAAAAAAAAAAAAAAAAAAAAAAAAAAAAAAAAAAA AAAAAAAAAAAAAAAAAAAAAAAAAAAAAAAAAAAAAAAAAAAAAAAAAAAAAAAAAAAAAAAAAAAAAAAAAAAA AAAAAAAAAAAAAAAAAAAAAAAAAAAAAAAAAAAAAAAAAAAAAAAAAAAAAAAAAAAAAAAAAAAAAAAAAAAA AAAAAAAAAAAAAAAAAAAAAAAAAAAAAAAAAAAAAAAAAAAAAAAAAAAAAAAAAAAAAAAAAAAAAAAAAAAA AAAAAAAAAAAAAAAAAAAAAAAAAAAAAAAAAAAAAAAAAAAAAAAAAAAAAAAAAAAAAAAAAAAAAAAAAAAA AAAAAAAAAAAAAAAAAAAAAAAAAAAAAAAAAAAAAAAAAAAAAAAAAAAAAAAAAAAAAAAAAAAAAAAAAAAA AAAAAAAAAf/EACgQAAEFAAAFBQEBAQEBAAAAAAIAAQMEBRAVIDRQERITFDEwQCGgQf/aAAgBAQAB BQL/AMLHvBl88S+zAvtV19quvtV19iFfLG69zP5z8R264ItWsKLYZFrzun0rTp7ll080rr1f+TGT JrM7Jr9pkOrZZDsGh14nQ6NUkMsZ+RluV4VJsMpNKyaKQz6GAiTVLBJs206bJsOmx5VyZ1yZlycF yeNcnjXJwXJhXJk+OafInT5dpk9C0KKCYekLdiNR68rKPUrmhMTbxJEwtPrRgprk83EIJZUGVYJB jghzaooa8If43ASRUqxo8mB0eOaOhZjTs7OhMgeHVlBQW4bHh7V2Oq09mWwSirTTqLIUdKvF/tOM JGlyoDU2ZPGnZ2f8VTUIUzsTeDuWWrQkRGUMMk518uKNenp4KavFO1rNOHhn3HhPwepJ7rcYPJJB AFePwupUaPhTk+Wp4LQ76GT4pgMZA8LrTj7Fm9j4LQ75VbklV69uGw3gnJha1qMyd3J1m9j4LQ76 OMpTMCjL8UOnPEotOvIhITb/AGy2oIVNrqWxLO6+CT4Vm9j4LQ76j3s1eKwM+VICICB0JkDx6dkE GwyDSqmhmjP/ACu7MjuVwR60Ao9eV1Jbnl4w0551Xy4olp9ks3sfBaHfUe94HGEjS5MJqTKsAjhk j6BmlBDoWhTa1hk2wabYFNrwLmtZczqrmVVcxqrmNVcxqLmdVc0rJ9aun2Ik+yn15kWnadFbsEnJ y4szuo6NmRR47qKlXh46nZLN7HwWh31Hveo6leRHk1yRY7osqyyKlZFPFIP92F3TVpyQ51okORM6 HHBBnVQQxgHVqdks3sfBaHfUe96JL9eIwt15OtxF09aB09Ks65dVXLKq5VWXKqy5VWXKqy5XVXLa qahVZNUrsmhjbpOWONHp1hUM8dgOnU7JZvY+C0W9L1QmC3xP19j/AKhkkBDo2hQ68zIdgU2rXdNo VXTW67oZAP8AnLYigT6lVkWxEq2lHOf4p7k0x8Mdi+Xp1SZqizW9KPgtau78KWl6Mzs7cJqNeZzx xR5VgUVOwCcXHpEiAoi98XRPblmk95JiJnozFPVV5ye5wpxFLZU2SfyBjkgyq4oAGMeixairDYsH ZkijKWSMGjj8E7MQ3aBV3UFuauodWI0JibdDszoq0BJ86q6fJrunx41HkRifTPkk8nKJ0OOfrFEM Manpw2HbMqshpVhQgIfwmuQQKfWkNOTk4RlIdKk1YfCP+Xvq/JwAzjePUsAo9eJ0FuvJ/pKQAR6V YFJsOpblibjXzJZVBWjrj4R3YWu3yndQVJrCbHH2S5dgEQED8BkMEOjaFDrzMh2BTatZ02hVdNbr umljderfw94snsQsnu1mT6dVkWvCi2HRatkkduwa/eMdSeVRZChqwweH1rDtwpZvqzMzNwcWJpM+ tIjxxR5VgUVSwCdnbr9xL5DXyyL5ZF8si95L1frGGU0OdaJBjyOgyYBUdeGLq+1B7/B6L+t6qwla /i7M6KrASfOqunya7p8eNPjLk5rlEy5ROuU2FymwuU2FyidcnlTYxJsYU2RCmy6rJqNYUMUY/wAt KR46aoG50/BaHffipXxmbwkkgRBdtvakWb2PgtDvuFfTliUN2CfwJmMbT6wCpp5Jy4ZvY+C0O+qA J2rOUQp2cXUV2xCo9hR360iZ2f8A1HPFGpNWAVLqzmjM5HUFSaw9miFaks3sfBaHfUe9UteKdpsh S1Z4eImQINCyCHYlZDsRIdOq6a5XJNIBf19WZPYhFFfqii1q7IthHq2SR2Z5OIiRPFmWJFDmQRL8 Wp2Szex8Fod9R73okqQSo8iN0eTOKOpYBOzt0sZMmsTMvuWWX37S5haXMbS5laXMbS5haX3bKe1Y dPLI69ekYpDQZ1o0GOSjzKwIQEG46nZLN7HwWh31Hvf4OIkip1iRZdZ0+PGnxnT5EyfKsrltpcvt L6NlfSsr6VlfSsr6FpcutJsy0mybCbHkTYzJsmBkOdVFDBCH8dTslm9j4LQ76j3vEn9oy6FgzDVs Cg2BQ6dUkNmA16+v+SfTihM9eV0d6yazLZzP06nZLN7HwWpH7bcZvHJBOFiPg7erTZk4EcUkfQxO ya1YFNo2mTatllFrl7mf1bon1Ioj5yybZ/7HIMsau6MgzPdskilkJUrBxWH/ACQCCRmd0FGzIqFL 6vVqW2k4U4/iqeCuVmswkJAUM0kB19OKVfvQdWA0WXWJFjiiyJmT5lpk9KyyeCVlHBLKcY+yPi/5 JGUUnChEUNRXs+V52zrTocmw6q5jQyI4Y5HERHqmsRQNa0jm4Z9N5pPCW6QWmnrS1yUNmaBRa6ju V5f7lGBr4IkwA39DkCNpdSAFNqTyJ3cn/VUyyJCLC3hLV0KrT2ZbBL4zceATyxINWwKDYBDpVSQz wn/jcxFFdrAj1q7I9g0d+zIndydCBG7s4v8AiqaZAhJiHwdyz9aEicyhgknOvmRRL8UtOvMpMdke bZBEBh0MZimuWBTaVpk2tYTbEi5y65yy5wC5xGucRrnEa5wK5yn2CT68yfUsunv2nRWJi6QqzyKP JmJR5VcEEYRtNXina1mHFwz7jwyeD1JPdbjB5JIIArx9Lt6o6dc0WVXdFjosidk+baZPUsMnikZe j/yYCdNXmdNQtOhy7LoceRDjxIc6qKCKOPr1KrBwpyfLU8Fod9DJ8UwGMgf19GXxg6+CFfVgX1K6 +pXX1a6+tAvhiZe0W/vrWB9izex8Fod8qtySq9e5DYbwREwta1WZO7k6zex8Fod9HG8shgUZKHSn iUWpBIhMTb/bLbghU2upZ5Z3XwSfCs3sfBaHfUe9mgjnGfJMUYFG6EyB49KyCDYZBpViQzxH/lcm FHdrAj1oWR68rqS1PLxhpTzqvmRRLU7JZvY+C0O+o97wMAkaXKgNSZU4o4JY+gZZAQ37QptWyybY kTbLJtiFc2rrmlVczqrmVVcyqrmVVczqrmtZPrwJ9iNPsun15kWnadFasEnd34szu8dCzIo8dRUq 8PHU7JZvY+C0O+o971HVgkR5VckWOiyrDIqNoU8Mo/3YCdNVsEhzbRIceV0OPGyDPqghAQ6tTslm 9j4LQ76j3vRJpV4jC9WkTOz9Tizp4IXT06zrl9VctqrldVcqrLlVZcrrLllVcuqpqNVk1WuyaMG6 TsQxo9WuKgsR2Q6dTslm9j4LRb0vVCYLXE/VwdnZ0xEKG9ZBDrWGQ7KbXhTadV016s6CaKTr9V7m 4zWoa6fWrsi2BVbTGeT8ae1JOfDHEvl6dU2aqs1vSj4LWru/Clpe1mdnbhLUgmc8iJ0eRMyKhaBF GYdIk4lETlFx/wDk9iSeRfioSlNUV73fc4U4TlsqbJd5Ax0GbWBCIg3RYtxVhsWDsyRRlNJGDRx+ CdmJrtAoHUFuauodWI0JibdJQxEno1ST5dV0+RAo8mED6Z8n3ScnkQ4//Y4xijU1WGwmzqrIa0Ap mZv4TXYIVPqyGndyeOMpTpUmqj4WzlhIpq8sDoTIHj1LAKPXidBcryf6SljjR6dYFJsEpbk83D9V fMllUFeOuPh3ZiabLgkUuXOCOM434DIYIdC0CHXmZDsCm1q7ptGq6a3XdNNE69wv1+rL5AZPZgZP erMn06rIteFFsEi1LJI7U59EdOxKoshQ1oYPGuzE0mfWkR44o8qwKKnZBOJD1+rr3mvlkXyyL5DX uJevWMEpoc60SDHNBlVxUdeGLyvozoq0BJ86q6fKrOnx4k+MuTmuTyrlE65TYXKbC5RYXKJlyeRN jOmxxTZECbMqshpVhQxgP/ih/8QAHhEAAgIDAQEBAQAAAAAAAAAAABEBEBIgUDBAoGD/2gAIAQMB AT8B/C4/4FjMhjH7MYxj6TGPZCEIxMTEQhGJiYiELZjHzGPRCF8qEIWjHx5nRC+5CuJ4s2uIqieJ PImKjhzyJqOHNRI+I7jhzox/ex6xw5IpaMY/nYxjtCJqOHJGiFsxmRkMYxjGMYxjMhjHqhCuajhy RuhGIhfEhCFvNRw5I1Y/FCEIQhCEIW73mo4ckeDGZDGP1Yx07jaajhzUTohCF6O4qbikIWz48xTH 4IQhbIQrQheLHcRxp0Yx/UxjtceZpCFqxmQxj9GMZkMeiFyJqI1QhC+ZCFy5I9EIRiIQhCEIRiYi ELzmo4c1E8aZqOHNsfCekcOSBWxj+xjtCqOHJFoWjGMY/gYzIeqFU1HDkjVCELwYxjGMY/FCFrNR w5I8kIRiIQhCEIQhCEIxELymo4ckasYx/MxjInaajhzst2MezMjK5kdRoiI2majhzb2RiIQvOKmB CF5OojizGjH9zHcRxpndjH8rGMe0TxZtUhC2YxjMjIyGMZkZGQxj2QhWqieJPihGIhC9kIQheExU cOflXxzUcOaY+I7jhzox/ex6xw5IpaMY/nYx6IRNRw5I0QtmMZkMYxjGMYxjMhjHqhCuajhyR4Ix EL4UIQhbzUcOSNWPxQhCEIQhC8HvNRw5I8GMyGMfqzIesbTUcOaidEIQveKm4pGItnx5imPwQhC2 QjHReTHcRxloxj+pjHa5SFqxmQxj9GMZkPVC56EIXzIQuwhCMTEQhCEIRiYiEL8UX//EACIRAAIC AgMBAQEBAQEAAAAAAAABAhIRMRAgUDBAUUEhoP/aAAgBAgEBPwH/AMLODDMMwzDMP38MoyhRFUYR j6YRVFEUKFX6WGUKrtlFkXRcuXLly5cuXLl0XRZGeuEUKPzFASS5yXRcszL/ACWZdlyy6OA0146j kSxw3guWf7rsUly4/wA8VLPDeBy8NPApcSWfEhrhvPjRfD34cdD8eC/3iW/DjrhrI1jxFD+8y34c ddHFDi/34YoCWOM8S34cdEtCeBT6VRQqzH5sMoyhhctpDkR3xLfhx0S10uy6M9MFUURQoUZRlWVZ VlWVZVlGUZQoUKowutkXHJ8w3xLfhx0S13yy7Ll0WX4cosi6Lln3hviW/DjolrrVmH8MssyzLMuy 7Lsuy7LMszLM9cFWNY7Q3xLfhx0PXwqihQoyrMP6YyVZQcccJY5n2hviW/Dg/wDOJR/nRSaLl0ZX 0SxzJYfEdcvXCmXLvslkSx40ZZ4aTHDvllmXZcv2Uy6Lj4TaLMs/ik2KHMpZ8aOf96URQw/1VZQw uXIbz40Y44bwXLLrVFChRlWYZj5YZVlWUZQojC6ZQ5jbfjwX+8Sl/OtmXLoyvlgx8slkXLsy+2H4 kdD188ssy7Lly5dF0XRdF0XRcuXLssyz+cd8S34cdcSjjxorHEt+HHXLiOLXhKAljmW/DjoehT/v NUUKv9eCjKLlvApZfEt+HHRLXCeBTMrpVFChVmH98MqyjKFEYXSyHJ8Q3xLfhx0S11yy5dGV3wjC KoqiqKoqiqKowvhZFyz6w3xLfhx0S18ssuy5cui6LIsiyLIsiyLIsiyLouXLsszPxhviW/Djolrr VFEUKsw/yqJQqiS7Q3xLfhw1w1jopLthFUURTsoFCnMYlVxJf86WRKWe0Vw9+GnjhrI49csuy5dF kWRkz8Zb4jIsi6HLjPdLIo8SePFUsCeeGsjgYf4M/ajFFcuX88ZRyJY64KIoVZj8lWUZQquzj/PF Szw3gcuMsuWXbCKooihQoUKFChQoUKIoiqMLrlFy74TwKXElnxIa4bz3yy7Ll0WRlfXKLIui5cs/ hF8Pfhx0P8OTLMsyzLMsz+CC/wB4lvw464ayNY8RQ/vMt+HHXRxQ4v8AfhigYxxniW/DjoloTwKf SqKFWY/NVlGUMLlySHIjviW/Djolrpdl0Z6YKooihQoyjKMqyrKsqyrKMoyhQoiqMLrZFzL5hviW /Djolrvll2XLosjP4Mosi5cs+8N8S34cdEtdasq/hkyyzLMsy7LsuyzLMszL7YZRjWO0N8S34cdD 18KooihRlWVZj5pZKMoOOOEscz7Q3xLfhwf+cSj/ADplouXRZfRLHMt8R1zJ/wDOFMuWfZLIljxo yzw1kcO+SzLMuy/ZTLl+U2izMv4pNihzKWfGUhPPNEUMP9VWUMLlyG8+SpMuutUURQoyrMMx8sMq yrKFCiMLplDmN586zLl0ZX5clkXLsz62WWZdly5cuXRdF0XRdFy5cuyzLP8A8UX/xAA0EAABAgMG AwcDBQEBAQAAAAABAAIDESESIjNxgZEQMTIgI0FQUWGhMEKSE0BScqKxoAT/2gAIAQEABj8C/wDC xVw3WKz8ljM/JYzPyWMz8ljM/JYzPyWI3dcx57ejN3VLTsgrsHcqjWBYksgsZ+6rEcdVz+lRx3VI z/yWKVWydFehA5FXobgsSWYVx7XZHzG9EE/QLu4c/wCy67P9VeeXZnsUaToqQX7LDlqubBqqxGKs YbLG/wArGOyxXbLFcsV2yxjssb/KpFGyo9i5NOqwTor0J407N2K5X2Nd8K9NmamxwcPbyqbjIKUI Wz6+CvPp6DjchuOivWWZlX4pOQXRazKuwmDT9neaDmFWC3SiulzVcig5rDJyqpES4TY4tPspRBbH yrjq+h8n9X+DVN7tOHdsJ9130TRquwxma/vZPYHZhXJsPspt7weykRIqYViPUfyUwZg+SWvuPSi5 xmSrMNs1OJfd8KnkUojJ+6tQ77fkcP03nu3fHklnwYE1g5uMlYZqfXyb9ZgkCajhDcecvI4iZE/i UHtMwfJhAHPmeDNfI4nClW+LVcdX+J8jm4yCswKn+SmTMngzXyOIgxvMqy4SPCTu8Hur1w+6m0gj 2/fX4gyUoLNXKcR5PAxbNz14M18jiKFmpRGz91OCbY9PFSc0g+/CbXFuSq4PzC7yFsV12cwrsRpy P7Wpkqxm6K6HOVxjW/KvRTxusp6lTid474RzHBmvkcRQs+MntDh7q4SxXZPyV+G5uY7F2I4arFnm qhh0VYQ3VYJ3VWPX3bLrOyxPgrF+CsX4KxfgrE+FzdsuT9lSG5Ug/wClRjAuoDIKsZ26qSeNFSER nRd7E0arsOZ9TxOY4M18jiKFn270JqulzdVcjDUKll2RVYLtFWG4afXoCqQX7LDlmVeewK/Fcclh 2syrjA3Ido5jgzXyOIoWfZsOfX2V2K3t1aCqwWfisFqwvkroO65O3X37r7919266XbrD+VghYLNl SG0adm+9rcyuouyCtQzPtHMcGa+RxFDceU+w6zzlRV58Lj3NyKxJ5q8xpV6EdCq2hosX4WMzdXXg 5H6fePDV1E5BXYbirBbYceXAm2Q3wA4vP2y7VnxceDNfIxHGTuAhRzk5THGbmV9QrkUjMKll2qrB cqgjshzTIhNcfET7JcXkDwC6jupgmaa53PlwiWvXiyz4GZ4EwiLJ9fBX4oGQVbT8yrLGho9uzfNf Bqtu0HogxvMprByaJeRkETBVtlYf/OFx1PQqUQWD8KbXAj27NQqwWbLDlkVQvGqpFcpveXD0l2iY LhI+B8F1sV6K2XshDZyHCb219QugnVUgtUmtAy+hefX0ClBFgevipuMyrLBMlTNYh5nyWq7jn4y5 cZscWn2V6T81fY5vyrsVv7m+8NzK67X9Qu7hy/sr0Qy9Bxm/u2+/NSht18lmTIBWGUh/94XG09Sq xTayV2Tx7KT2lufG69zcisSeavMaVegkZFVtDRYvwsZm6pEbuuf0KuG6rFZ+SxmrrJyCox5V2CNS qWW5BXort+xdhnMqcaJo1XGCfr5OIDfGruAixxk1SFOMnAHNYdn+quRSMwqWXZFVgu2VRLt8yut2 6xHbrEduut266juufbuw3HRYcsyr8RoyV4uerkNo7Vj9Vs8/JIihh3K19KomqwWbLDlkVQvGqpFc qRv8qkVuy62LqZuubN1zZuubN11sWI1VjDZVjHZVe8rpJ1WC3VXWNGQ+kZGRdTgwu5+RxOAZEMon /fJbT3SC9GDkODNfI4nGy/vG/KuvkfQ+Qze4NHupQRaPqeStRHT4s18jiJjXCYJVqBeH8fFSIkeF 2IZehXew9WrEA/tRTBn+6vxGjVXJvVyTFN7i4+/C42nqeSLup8xXgzXyOIoWfDvGAqcF+jlfhnPj dcRksSeavQ2nJXobhkusjMKkZm6o9p1+rUqsVm6xRoqB7tFcg7lUstyCvRXHXjJoJPsrwsD3U3d4 fdURzHBmvkcRQs+zehBXIjm51V0tcqwnKvZo4qkV/wCSxn7rGKxfhYvwFifAWL8BYpWM5Yz91WI4 69q6xxyCw7OZXeRQMgqtL8ypMaG5dg5jgzXyOIoWf0bzQc1WC3RUDhkVSI4Kkb4VHsX2nVYfysI7 rBcsFywXbLBcsErC+V0jdc2DVVitVYx2VXPKw55lXYTRp9E5jgzXyOIoWfYLj4KYeWjwAVbLswr8 I6FdRbmFdis3/algBeR6K4xrflVinSiMKIZkCYPaOY4M18jteDwmvHNpmrbNR6cZHxR/TFtqvsc3 MdihIVIz91i/C+06LvWCXspjsljWl8lgf6VYNP7IPZyPAw4NLPMrGcrz3HVNkaOMiOBa7mFQTVIR GdEXPM3n47X6LDMDmeENp5y8js/cOlFrhIhWobpKUS474VOxehN2VA5uRV2MdQrr2FdAORWC5VhP 2VlrCms9BLsljxUcWtfz5y4GJCbaDqrC3KqWDVCJEdaI5DhN8NrswrrQMu1OI+XsrMO435PD9R47 tvz5L/F/g5SiN14d28j2Uo0PVquxBkafXvMDswsJmyo0DT6k3uDc1dm8+yk3ux7KZMzwtx6D+Kk0 SA8l/k/+Km92nC0GGz6y43Ijhqr1l+ivwiMiuuWYV2K06/s7zgM1WM3RXQ52iuQgMysSWVFMmfCT Wkn2UiJHhYj3m/yVppmD5JP7j0oucZkqzDbNTid4744XoYn6ii7uJo5dFr+qvNLcx2LriMiqRnbr EnouTDoqwmqsH/SwTusJ26wnLCcsJywTusH/AEqQRuqMYubRosU6KsV517N2E5X3Nb8q9N+akxoa PZSiMB91ahX2/I4fpvPdu+PJLPgwJrBzcZIMZv69qqrBaqWm6q7G3Co5hWHPIqsF+yrDcNPp0aVS E/8AFYJXJozKvRWjJXojisOeZVxjW5Dt/rsEgTeHCG485eRxEyJ/EoPaZg/X6G7LCZ+KwWfisFmy wWbLBZ+KwWfisNuy6R9cQBz5ngzXyOJwpVvi1XXSd/E+RzcZD3Vn/wCf8lMmZ4M18jiIMbzKsvbI 8JE2x7q9Nh91NrgR7fvr8QZBSgs1cpxHk8P1rMmevBmvkcRQs1KI2anBNoeh5qT2lp9+E2uIyXVa /su8hbFddnMK7Eadf2tSAqxW6VV1rnK4xrflX4juN1kh6lTf3jvhHMcGa+RxFCz4ye0OHurk2FXJ PV+G4adi7EcMisU6qtk6KsJqrBO6rDeuT9l1O2XX8LE+CsT4KxPhdZ2X3bLpeqQnbqkH5VGMC65Z BVjP3VTPjICapDI/tRd7E0arsMT9TxOY4M18jiKFn270JuypabkVcjbhUsu1WCdFWG4afXo0lUgv 2XRLMq9EaFfiOOSw55q60DLtHMcGa+RxFCz7NiZOSpFGtFQz7VQqwmbLBasL5WH8rpO65O3X3brk 7ddB3WH8rBCwWbKjGjTs3orRqqWnZBWoZzHaOY4M18jiKG48p9h1nnKikefC6SMlSMdaqoa7RXoO xVWPC6yNFjNUmRGuyP0OY494+XsqWzorsE6lfpubYJ5cCXOMvTi9/wBspdqz4uPBnkYjt8KO4CFH OTlMGY4zfDE/VXIjm51V1zXLCOlVeY4ZjszBkQmOPMjslznHL04tc/nynwiWvXiyyKAzJ4Ewniyf A+Cvxdgum1mVJoAHt2bxr4NVt+g9EGN5lNYOTRLyOREwVbZWH/zhcdT0KlFFg/CmxwcPbtXobTos EaLpI1VHvCtOcXe3aLoTwAfArFar0bYIMZyHDvGTPqsLcqkFmyoJfQvPr6BShCwPXxUyZlWWCZUz WIeZ8mtQrjvTwUojCPfhNji0+yvSfmr7HN+Vdit1/c33tbmV1F2QXdwwP7K9EMvQcKKcTu2/KlDb r5RIiYU292fZXZPHspPaW5jjdeW5FYs81eYwq9BOhVbY0WL8LGZuqRGbrmPoVe3dVjM/JYzV1E5B XYbyrsIalULW5BXort+xdhnM0U40TRq7tgHv5bIiaw5f1orkUjMK7ZdqqwXaKoI7fNdR3XW7ddbt 11u3XUfoXYbjosOWZV+KBkr1p6uQ2jTzWqrCZssLYr7xqqRHKkb/ACqRhssRi6mLqZuubN11M3XW xYrVWN/lVjHZVe8rpJ1VILVdY0ZD/wAUP//EACsQAQABAgMHBAMBAQEAAAAAAAEAETEhQXEQUWGB kaGxIFDR8DDB8eFAoP/aAAgBAQABPyH/AMK6hdjaPWEbhySj8Kfy0/lp/DQW3RQtl5YWTc/fFBVQ OM7KSrxPuY5zNUfAasy9oZeeVRO4s4tdPP8AFZ3pFhPNLa2oMuLV+MH34J266M3z8YnaUH3HAOeD C4PxKnaWcHcKRurWp6O1VVPPKifuwy5aj/EyC0qw/Sv9wzH9azfR/wApP5BP5yORK7n25zNPVQVz zfiWzSTeF5Gd1BxEuU2ijUmWrctTvMDJ3mKYbV8GE4/gVfak5SurKhx4wir1zRm3r0mCZWNR7QXS qUvq1U8UGAFin/F5tyW4fTKXdtakD0s0l+LvlVSW5NnG8CpKcLfWg3w59npFxrH7ltLI2NjGCch1 lt+hvl5bqpb/ALKMFqSpupKkq4nU9IqUFxgqERMyIiuXmNd8PmxAmfsju7CHGO2VVWVVFnuISac2 QAoADI9io8bmY5wZdG5sCeMM8/sjNXgA8zJTCGw8i9mSMMRb9+xsRYDyw9j708Ew8rQaQgQ6j7MJ irdE2d55ex96eDZTOLuSyjPgPsbcgXVgzrmxpHLsQrns7zy9j708EAutuIFncYKqjRMyUhDc39ZT BPS9ZxQ0q/8AdZG7mLBx+m3TSAcjlsxCgNKs9NneeXsfeng2TTF3MxK5xowil8shTZXyN6pMBAk/ BDjWmYVupTtcj/yi1AcWdnir4l+/ShMN444peqbhodttMWNOSgPwGzlCBBQ2HeeXsfeng9E8J+Cs xJvqTGKfio9436AO2e5YFoDO9DGe+lEyd0lVjyPmDXpkbI559fxT7vinB/bhPs+KI5nniedIrPyf MzD1Qn+3/iO75Vll0rPD2iNVc4u1CgV4SyhvleCcD9ymIai+m3eeXsfeng9coJRl4TvCj2nYDqmf HCnLC+jnPlg8Tv1OUp+a5rQl/nPP0gTti1YXsCk3oa0LoFofgt3nl7H3p4PVLyoF6K0mcrctHvBE qeruoEuJ5JduRhF9zT5ovkc/oTM8CYGZIeZ55+2Flm51c7HRgBYp6PDIROhJYYrMzPwW7zy9jaoz o9iOrQY30a8uaBEVYsa7PGoTdPwjO2PUmT/Mlua8ZeNUSx84k7FY/grtKMcsZy0atge5UIDZmDUY tCuUx2NiqAS+yj9bbrX1V8cDQ2JU51d/Y6Ra0PidhYYGHywEgjZNqOmd1ox/SK08N6PM8VSviJU1 w9LtsUJEDUTR6FoLulTBMFoBFbxCghmMxiyqd+zGvUoNMtoWXBTcGytHStFRhfTK0xsp9LQcA5D0 1xVyl2OcHILCC/VaSy2B7GaYFEc4hBfPPXsd8mJT1b68cb5KvpAoDqS7zln7+CdqCMlNQYSKuBWW KHpELasRndV+JRqDNQsLzB2FlU5lGXzUueQJXzAKJ3Cn4KhT5plY40Yw3Yl1YWbbBML4dDgey0VY KZ1m+cX+XbxTQqTDKfgozA2d5gmerctHvBEqY/8AQXXkRLenug3A+JV7TBOWBsBWgVZQ/OHKYGi3 V32VyYFVcoqVLrr2M87hEwvjZg6Soo4rj0lfG3Cm1/tBN0/CM7Y9SL80zzjjLxqiWGW7nQwawefr qb42T1ixrkl/5GMtOpYPvlCZOc2Xh9DOdhZRFVVau3L/AKBHwoPpeBYbeYvX2esSlHwGwsMHH5YC ABYNtLF3CsxbE3qkd0ytP01PM8davEXoy4nqrALdaU7dRP7uf3c/pYveZS69faLc3T8InYFVmNMc WhLsu+mPX1D8D09kNUZUOxL48V/ELQBxJc5yz9/E7UEZI6gz/R/1HPWqjld6f1XxP774n9R8T+2+ IZ3VfiGYfWfoCcwNJH5AJeNW5au48zsKh+LEGBst9WhK6PsfenggqEaJDaFhjb2WqMebBFB/ptne eXsfeng2knNHBzlOA0d9h4tgVJW+VqKnLyMjb3nl7H3p4JhPkSVtOKs+Y9cFxKbKQI1JMrmn6lkb ugLRDeP/AFdPVxTDw3AoTBAfDFnFNCrsxk7+EJV1dHlps7zy9j708G2aU4jmc4uP02+WRm4VOu1K rfFSWZnhrPMWIzvwZcdSzzSonboH5W2DVlq3LLo2hZ2OI+cn9CnOWSt2A28FFCspiHW9JTBej6QA UABkbbd55ex96eD1Tn13hR7TH+EYEtV8GjO68K+IhQI8fTYxoyxPmhYSAf4zj+ifd8Wx33fFFfiI v80uHXzu5OKbq+nvujNyG+lHY8ArTFUJU8bcKeq3eeXsfeng/FJlAeCs8KVPE+urrG9+BmVucjuu bA2NKU8joYj8SUYfx9hv58E/xgv+PzFZepir84+Iq10Fmdmk+ekJ+whnbCP47d55ex96eD0yNgCr FdeuCl7j9LRVtxrS86zl8XLACojp/wAV9mHDJsJ3xIRqP7ZTFlUb0/BbvPL2NmpwCeJkphDaeRbS fGBRnDZ6OMQpyQ9GJ6Yz94M321EunOmjlXu3kAkqJUfSpEwKNCOQvrSYHBzU/wAR9qnhsfYKpRqr L1yGk7iqYGulyLWCqC8BdGxrFaMtwS0Fv+aKDA0wsPUkVxqW/dsbAWI88fY3dmMuMdsqiMqqLPcw w15uggqqjmbUHBlzfHAz7wOsyU5s7otSWnQsvPLKyxjVww6vDAmLladXoFURpA2NdgK0Cqw4KNeB sqDPUFxmdjQJ3IYEDjQMB2BEBnUgtAeCnqosbmZ5QZNW7sCWMM8/stSuBY/cwEDIWdimCcx0lv6D dM9eo/PT8K4kBt0MVrp35FAG4qTB9KUOsqdHqOsUKS6sBQBVciIguXmdd0DkwAGXstKuJYfuY6Rk bGwdZGTBt6dJgmWjjQ9orzVM5vjTthGVrb/iKrqCk8wFfE7CdEZ1qtL8zulXCW9dnCOQrHCguJBV UaJnFCpkZjXfAwMQJ7IbnHDHGP2VVWYijNyIYc8s5QAUADdMUNqEZi5wP3N1u9VjtHtD0eNcnmnV MvajBX+hxmZOikMh5f4hm/bpN/0k/uk/qk/sEcuN3PtymTOsrs+T8y3aCb6WgJ3GHFVqtdt5f8b0 oTFDeqYxX8VCcA2Ck4DBmOcDWRubAliDPP7IzV4APMyUwhEa5l6gFAJxnc4FPE8fvlBk+SlJ+rme PVU7uTiFxPxXAaEu75paR1oS7/S5RXaCwnbwJv14zPCIeuj4Ig379jYqwHlh7H3p4Jh5Wg0hohVH 8ylwY3yaiLXbklX40/j5/Hz+WgFuihYHywtA0Pz1A1bomzvPL2PvTwbM0+5NRRc9jTlK6qQBxnfy 0jlyYq57O88vY+9PBKU+XWLWHcYKNRoyni3d/WUofROs42SVf+7NnqMu/TbppkORy2Y9IEKs9Nne eXsfeng2TR13HMlT5Wo4NgFNlQJ3qkwdJ3Cstl1ld0pdr8/8pVTOLSeRz9Jf76Ewsnjil1RuGhtp ymjko/PDBygoRsu88vY+9PB6J4JoFZii4bEmPouDRnW5cHo7tKSyNoGeccmvNFJ+jv8AMRYdILcI EyJ4vr2O+v4px3XEszniObkNn5HzM0tQTKfP/Mf4hZYTpZ4WURWqLi7aqS3BLKu+GdyT9ykLNS+m 3eeXsfeng/BN67vwM/bU8x/0T8OvlLovV4nfOcRLlPzdjgnxgy6HSztV1Z2pQTJL3usKofwU/Bbv PL2PvTweqWKWYKahLQXd80HqQ3j6rGupLquWXTllIvl5KL5jnn9HsXwdn0LM54Hv88snNqyy9DOz 4PT0arolT7TfHlRS5c/BbvPL2NqjOj2I7tBjfQSrq5ozFA4jsdqrxUl6P0zneaoiSW+IGXjUOWPm YRSoNwProMyCtBndXbSAk2uZamjA7nkQpm0rUYtR3TG6mBcA24NN9xfUXTgaGxKnOr39jIJWj4HY WCBh8sBASybXyjyYOzAPg+l4b6ZTuwh6QzkVEgM0CvT0LRO6XAzCrDYFVRokeCpXibMz1t0y210K PcA2HmpWIf1yvzchJ1YFPTWFfKXYxTgFhBPqtJZTA9jcmBRHOKxW669jPP4xKYjfXjj+BV9XcWMv g9EtGilXkj4hAGZsD1VYUrStDO6LFooUzie1Dw2UxoFg0ZvtqMs85YDQBw/BU6bq2Vzj5jDlyXVg R75EwK8qcD2VKlGVtzqHxOAQZHns4/gVJhqPhxmAs7zBM6W5Ue8ESo1P+givICWtu6TMOOKswLlg bAVQVXIlG5xdymDZvV32hwJLiSp1eg6TF9aUekqA2htbryolsWiM/fCTJTmy1NWN1tVLPzqZdVoY WDc5X1ULpGyGolhPJL/yMZbdewXcKEyW5k+8DrLuzcUEVWq125a9BLf0G+CYpzPX22nENyVlyL3w f0itLo06PM8ZVfEYprhT1h2XWUrTf0s/pZ/cRa/UlTm+vtXubteERPatZjiTi0O06hpi91QUA6y4 7lmVjUJbOTOQ+oMD5f8AUc46w5Pcn9d+J/ZfE/tvif0XxDP678Qzx5MyLy/1M2dJB5I+JfNa55AF fM7OIf8Aih//2gAMAwEAAgADAAAAEAAAAAAAAAAAAAAAAAAAAAAAAAAAAAAAAAAAAAAAAAAAAAAA AAAAAAAAAAAAAAAAAAAAAAAAAAAAAAAAAAAAAAAAAAAAAAAAAAAAAAAAAAAAAAAAAAAAAAAAAAAA AAAAAAAAAAAAAAAAAAAAAAAAAAAAAAAAAAAAAAAAAAAAAAAAAAAAAAAAAAAAAAAAAAAAAAAAAAAA AAAAAAAAAAAAAAAAAAAAAAAAAAAAAAAAAAAAAAAAAAAAAAAAAAAAAAAAAAAAAAAAAAAAAAAAAAAA AAAAAAAAAAAAAAAAAAAAAAAAAAAAAAAAAAAAAAAAAAAAAAAAAAAAAAAAAAAAAAAAAAAAAAAAAAAA AAAAAAAAAAAAAAAAAAAAAAAAAAAAAAAAAAAAAAAAAAAAAAAAAAAAAAAAAAAAAAAAAAAAAAAAAAAA AAAAAAAAAAAAAAAAAAAAAAAAAAAAAAAAAAAAAAAAAAAAAAAAAAAAAAAAAAAAAAAAAAAAAAAAAAAA AAAAAAAAAAAAAAAAAAAAAAAAAAAAAAAAAAAAAAAAAAAAAAAAAAAAAFSTa5AAAAAAAAAAAAAAAAAA AAAAAAAAAAAB7CCq22235vnpwAAAAAAAAAAAAAAAAAAAAAABMJG2DceBshOR92+S0AAAAAAAAAAA AAAAAAAAAIi2sNQAAAAAAAAMq3XDwAAAAAAAAAAAAAAAAAAIGpoAAAAAAAAAAAAAHVWwAAAAAAAA AAAAAAAAAEMQAAAAAAAAAAAAAAAADngAAAAAAAAAAAAAAAABpQAAAAAAAAAAAAAAAAAB2gAAAAAA AAAAAAAAAAOkAAAAAAAAAAAAAAAAAAA4AAAAAAAAAAAAAAAAB30AAAAAAAAAAAAAAAAAJXAAAAAA AAAAAAAAAAAPI50AAAAAAAAAAAAAAKM04AAAAAAAAAAAAAAAAB7aHJBwAAAAAAAAAJzS3T3AAAAA AAAAAAAAAAAAPQMdm2nvPVIBvdKKW22oG4AAAAAAAAAAAAAAAAB6AAIz1Z2222222UyhgAA3AAAA AAAAAAAAAAAAAPQAAYABFVO7WxOwAHqAAG4AAAAAAAAAAAAAAAABzAM2HYYcAABIAfmH3wABWAAA AAAAAAAAAAAAAAI/AFMS22GABRAO2Y30AAxMAAAAAAAAAAAAAAAAAI7cABDLlABHfxmkAAAESAAA AAAAAAAAAAAAAAAAI2F/AAAAAAAAAAABs6+qAAAAAAAAAAAAAAAAAAEyFGw7LKxAAINVv8e2XQAA AAAAAAAAAAAAAAAAI3AIBrW237IBO223mbQAIQAAAAAAAAAAAAAAAABxAAAAJZUHWtiWH1wAAABn AAAAAAAAAAAAAAAAAPyAAAAAAAAAAAAAAAAAB+4AAAAAAAAAAAAAAAAB21gAAAAAAAAAAAAAAAEk 3AAAAAAAAAAAAAAAAAPbXRAAAAAAAAAAAAACcHW4AAAAAAAAAAAAAAAAB6Lg3OdvoAAAAABZYk3Y w3AAAAAAAAAAAAAAAAAPQBOlW22NX+37I224+0AG4AAAAAAAAAAAAAAAAB6AAAAl9zhybWwjCDAA AA3AAAAAAAAAAAAAAAAAPQBHhyAAAAAAAAJAyUAAG4AAAAAAAAAAAAAAAABpQIo2yGvAADJwyOJf wAB2gAAAAAAAAAAAAAAAAEMQBCwQVsAAHwD8x0AAKngAAAAAAAAAAAAAAAAABnooAAAAAAN8AAAA ANdfQAAAAAAAAAAAAAAAAAAA42lAYAAAAAAAAFj/AFi+wAAAAAAAAAAAAAAAAAYKjCBtyhVzJaBm Ndv21XNAAAAAAAAAAAAAAAAADSgAAMjExtttt8ZzoMAABtAAAAAAAAAAAAAAAAAdIAAAAAATG0m9 QAAAAAARwAAAAAAAAAAAAAAAADt4AAAAAAAAAAAAAAAACSuAAAAAAAAAAAAAAAAAcTz4AAAAAAAA AAAAAAcJ5wAAAAAAAAAAAAAAAAD0kMSKwAAAAAAAAATGhtnuAAAAAAAAAAAAAAAAAegI7NufeKtS B+52St1jANwAAAAAAAAAAAAAAAAD0AAQ3Z7ttttttsAXDAABuAAAAAAAAAAAAAAAAAegAZAAAA8Z v9hFwCW0AANwAAAAAAAAAAAAAAAADmAaulC7MAAQQA2EVtgACsAAAAAAAAAAAAAAAAAB+ANXxts8 ABfgdvwBIAD4YAAAAAAAAAAAAAAAAAZmoACdOmACQ7giwAACa2QAAAAAAAAAAAAAAAAACVOJMAAA AAAAAAAAB7ltEAAAAAAAAAAAAAAAAAAADoNxkUfyAASa5rwdsigAAAAAAAAAAAAAAAAAAAAACBWt tvmAQNtt9N2gAAAAAAAAAAAAAAAAAAAAAAAAASg4cnZG+F7QAAAAAAAAAAAAAAAAAAAAAAAAAAAA AAAAAAAAAAAAAAAAAAAAAAAAAAAAAAAAAAAAAAAAAAAAAAAAAAAAAAAAAAAAAAAAAAAAAAAAAAAA AAAAAAAAAAAAAAAAAAAAAAAAAAAAAAAAAAAAAAAAAAAAAAAAAAAAAAAAAAAAAAAAAAAAAAAAAAAA AAAAAAAAAAAAAAAAAAAAAAAAAAAAAAAAAAAAAAAAAAAAAAAAAAAAAAAAAAAAAAAAAAAAAAAAAAAA AAAAAAAAAAAAAAAAAAAAAAAAAAAAAAAAAAAAAAAAAAAAAAAAAAAAAAAAAAAAAAAAAAAAAAAAAAAA AAAAAAAAAAAAAAAAAAAAAAAAAAAAAAAAAAAAAAAAAAAAAAAAAAAAAAAAAAAAAAAAAAAAAAAAAAAA AAAAAAAAAAAAAAAAAAAAAAAAAAAAAAAAAAAAAAAAAAAAAAAAAAAAAAAAAAAAAAAAAAAAAAAAAAAA AAAAAAAAAAAAAAAAAAAAAAAAAAAAAAAAAAAAAAAAAAAAAAAAAAAAAAAAAAAAAAAAAAAAAAAAAAAA AAAAAAAAAAAAAAAAAAAAAAAAAAAAAAAf/8QAIBEAAwACAgMBAQEAAAAAAAAAAAEREDEgUDBBUUAh oP/aAAgBAwEBPxD/AAsUqKiogqKirvoJwssor8lZReMkFXYtEP5G5eNFll8BJPGLLKI+KZCcSl6t r6Gzyk2J8ZIvyQTi24J/YkfToQ23hJsX2JF+2UajdZ+vStFhJsSrfRtJjnEP50j/ANF/RKdN7sNV 0ewnGb6Z/WNej2wxCR9I/nOvR7CVynQlf72iH8jbeI5ca9HsbDSY39cE4jJV+aCRuNnlMxKjXGvR 7G2ZRqNyNcKyi8kkkkkkkkkkk4WWVxTMX2JFnXGvR7G3OGThZRH+CMsvGSctca9HsbcWiEj8ERBB JJJJJJJBBFxqJE0+WuNej3NudZReEkEF8baWySRK8NnnflrjXo1949L4NHjZXNcWzy1WNspXh/OK Xk0Q3RKi/nSQwmQl984iCSRcr+SyxKYaMkjwtEP5wlSHTR6zYJxKJH+mjUfyNnlOxJLpqYTPFuTN KLwkggq8VRBJOFlcEzF9iSXTv6x7XxaY2V4aVlZWXwRlFiUSS5VdJubeOIgknLZZZZZZeSSSCLxP /MadHtinStwpjXo9sp0JH0NH8jbedej2Nh/OUyF9iR/rbSGo3LcJmOFjXo9jbDSY/kbLhRZJJBfN UQThZW+CdiVY1xr0extxaMallc6yiiiyyyiisr5RliKUnDXGvR7G3igknCyyyiiiiiiiyy8JIIvD rjXo9jbi2Lxkq/K1Q3KLfzlrjXo1/onBO8G5HxrKLF98mqyJ3DL/AAorGjw8JmQ5erCRdGlWE2hK 98YicLLKIxJsXFqZSLDL/CixTiJ820h3rFP70tBprCbQvsSPzwi8tGo3efr0yENt4mU2i8ZKvyQT i25fXpWiwlRKt4aMfyNycKUWWXwEkk8BZZRXxTMTiUkGkxzrEP50j/0SolOcE4WWUR+SMosskgi5 +7DVdHsJxm/PCIiIiCIiIvwP6xr0e2EyEj6R/Odej2EqSYToS/vaIfyNt4jlxr0exsNJj+STKcRk q/NBI3G28pmJUa416PY2zBqNxprhWUWXhJJJJJJJJJJOFllcUzF9iRZ1xr0extziZOFlEf4KLLJI 56416PY24tUJPBEQQSSSSSSSQRE41IkTT5a416Pc28FF4SSQVeNtInBXhtvw9ca9GvvHpfBoySyi clri23lqsbZSvD+cEvJohuiVF/OkhhMhL75xEEkiXk/kvBKYaTIIvC0Q39YSpDpnehprKcSiR/po 1H8jZ5TsSS6lqxuTNKLwkggq8NKiCScLK+CZi+xJLrmmNleGlZWXwxl4pRJLtoiCSclllllll5JJ IJ/ih//EACMRAQACAQQDAQEBAQEAAAAAAAEAETEQQVFhICFQMHFAoIH/2gAIAQIBAT8Q/wCFimW4 nVOqdU6p0SmV90baEDmw0PqlOPzonVOiME7MVtEtoiZ+iNghzYFADHhYSred+hXifzP5l+JfiX4l +JfifzK8ah2QDv4rbRG0QiJn5QXEczCaoMsQi9iLRTf/AB2kA3hAO5BN9UHMBxMp8doHDQco8CKb /wC0UxAMxWdb/cY+JegV6IAtiuPhphDfTpWs+IKtFouIrfjX+nQ0j4eOCyoiNPxvZ8V49Dhcvh5m 9GPi+OLRbBHGisQUSv8AcNgnJAw0pdfF8cyRMIDmCONEHMWjxYlFGf8AMNtDcgN4Fg1ykVx8b8cy aimIBmCZgHHghyRTbQrzL8+AfXOudc6/DC/M/uUhILaV4Ibx4kR8g8cyeYW8IHMhATeWP73Et488 YL2ItFXPyzxzJ4iFxLbztnZOyd/ngB3ztndLc+InEGiKn5Z44bXgZ1QcxbaIi+dDrnVETP5iw0h8 xxegjWtHkNGf4o3fBgIPchAbeX4pfpiU14iJRKIFBpSlasFegV7idiKRVz4rhAFEUC2Lbfw8QPRz plIhiImfILed+hfiKT15BXvQTxErbphNJTeKufwwkAzKqKBbP/B8b0akHMUxFbRLb/SC4g0ObAsG omImXxcwPZzoOUveINBHGqDmLbREXsxh0zqluPxpnROjSIHNhALbwSyzgmU+SNnwXUC3g9yEBt/w qUSnEpxKJR+CDLEt4nYimIpl8vVdfExz1VfmFvO/QvxP5lePMACvE/mX41Lsir+RvQKXw8eiexj4 oK0Sl8Xx6i4+EALiI5gYfG8cdJITGdFI8WIbf6xOCCZgGYAY0HKN8U8cyaJhOSDYdUHMU2idmL2Y yS2lP7WbQ4IQObAIFg1WolFY+OeOZPELDBbw3INv5UTonVOidc651zrnTOidUo8lDMSjxItFXPyT xzJ+NpAt4QvxP51DvnbOydk7J2TsnfrFeJ/MYL7xTl+ceOZPA9wIikXsxKJbf5VS4DeAbQz2fLNX SJZURU+CswRx4VOqdegjbyRLn9z+4iNOgpbOiAEB0CJZohvMA8q/bo7T8O9Bv2QBTFMeIW8ID3Ia H2SnMQFsW2/ERLNUPpoFUzvjC8o0EYir5JhDPbpWoz8VoHDQcpwMSyfuKYluZb+gLiCZgs6meoW/ itA4aWY1Q5IpF7MSijb/AB0sE2hAO7ANtVDOpvuEr4l6BXogC2K40Cww5kGgjjwoZ1a5Xmf3P7l+ ZfmX5l+Zfmf3K86h0wDbxSyxG0UxFXMTCG+nStZn4gq0Wi4it8wt4QOZCHfO6WfnZOydkYJ2IvYi 28Vc+d/p0NI+HjgsqIjT+9stzO6d07p3TsluZb+/s+K8ehwuXwwub3xnji0WwR9mioLERM/7hsE5 IDDSl18XxzJEwgOYI40QcxaPFiUUZP8ALUE2huQG8CweAK4+NeOZNRTEAzBMwDh8EOYptGFeZ/fi B9c651+EF+Z/egTC28UN48SLZ+QeOZPMLDCBzIQE3lHf97JVvGaNiL2ItvFXPyzxzJ4jFxDbzuW5 ndO3z4D752TulviJggkRe/lnjhteBnWrim0YPF1PoijJ+FarhoD5jizQRqyg8hoz/FG74DEYLeG5 BN4I+KXEp8QFGoD00pStQNHo9x4kWi3nxXCAKIoFsW2/h4gejnQcohiImfIRvOzWFJ5UHuV4j1iq 26YSd8W3/HCQDMxFAt+OHPTAw0QcxSK2iW3+kFxBoHdgWDUTETL5IswTMEcaoOYptGC9nQ651S3E r8KZ0To0hQO7CAW3glvOCLl824BvB7kIDby/OpRKJRKJR+CDLEonYikU5frAbzv0L8T+ZXiV48gA rxP5l+NSU3ir/wAUP//EACsQAQABAQUIAwADAQEAAAAAAAERACExQWGhEFFxgZGxwfAgUNEwQPHh oP/aAAgBAQABPxD/AMK9zBxa05wrV2/Wm+H676R9zWvePNCXepnV7j131pGJ5rSoDUjc/dvBi9UF SYBL5XpKpgS8E1FGkZuYtAqUDuI71MQHcHxVyyd/2RWs0vNJzxpP8IpcpwrUpCun4Qd69No3lQXR 7uKiMye4zUIJb2PcqNIJhqERrRMge5D9jKIjF0i7nUtudEdE96kBDgdTLrWeVG7vgrDu5uyo28Yr 3RV6EZXzWvWvZUvTHgKwg4rTweKGMeAPNGJsR5wy41YE8S+a/wC3UPRl5a1pzpoC/mK1wHZakIEx EdqRhFuSNoBES5GoiKLtHSKi8UpPIaVHOnO6idYosmYMafVB0uRgObTCZ2W4eXSkQt/wy/nO1ghX EarqhGQ/wJd6iHegNbNREsYq0IKhZwxJOsUDADcEf0joA3B3VKTDiXwVJuFgPQSdanXcSX1JqYTO KaC3SmwLeoTYeDLkrSmR/fduZY9OdDAiEtm8seX090eyi3isCpcks2Xhnm/YbJHCiHmsrVQ/L8qK ROBqN3KgAAAFwf3MhKF3UFI13YXwlCAXGx1vE03QIDCcqfi0iQjVwMYk+Mzv40Z5peQZfSAgEzcd 5yPypwKmtWhN8auHeuBUC52wW2Rjz6UXK0AQB9FOFxAEcIW1b7GgsMzEzOmxzDAJXmJk49fpLvgr NJOp0ouSJJcK30V0glDML9MEyAywVoOMM7HpknuKrWn0mZrMFd4xOk1C7QsT6YxZ5GFcOa28s9nv N/6XNLWfKbHMcGhUEeAeWPL6MgPyMBzat36xDoG/i2caf8UlKt7s95v/AEmYnCoKwLExNJf2BwlG XIkSEo8Y8CZXus1Kv8BPQ8xRlquCOp/eFYniaZbQBNcF7D9qy7GSccIWbBSihYyWOLZ7zf8ApM3q ZNSBAWFnDaWAv7MPDpTu/cxa7My+taVDBOBL1Iagt5xaGO9RAoYrVaa0WW3gp3/qtTS9IKkrabz6 SqQMBIG5tulTQnBXwGlS41v01A2ror/bb+U01CFsEN3c+lE4AgCAt2e83/pM3qZO3JhBh+VNPNwO m261IQW7skO9LCIxQOt3wg7AwId6hwYw76VG84TslC1/7hp2gT3CtAVad6f4avbivEUPjONQXDsG BLe4VLi4L86urgX5rRlLvQ3vhm1+h+VO+oO5UjBei2anbG3jHoRWYEmXXaDargStRC1y2ttPgxjK er8pcC+82HLb6jfs95v/AEmb1Mn5IAEbxKlVpfqaDUkoYADUXWjS7gRqF7VNw3A7CpWXG4eatJmd ylKETj/MlDO5GoiCcYjqlR124m8zUEk5lNDvUe71D75qIbBi2i7SstyF2fL1G/Z7zf8ApM3qZPxf iuJ5e5SoSartHQaAII3I/LTu2r6Dey9qud8D2NYX4BS4OC/elLh4KnLcn5Wd0Pyg8Xj/AMVenEOr +4z96uReL7tdjp3VpbbxQ8AMiPgCsZuVrU+XNsqdWKgjNhCF3J8vUb9nvN/6OAkWLMqGECJcTZOv wCJQukMa0FoCBenGdjsoZ/ZUSDDDVYmoAK3ye7SozVHuCo/ke9lq5G7vHV7lDOmETLU7Y/wQWJJ4 7UBC+SrgFtezyzipGXzj3au+2ATumy2juUFaZTCFcAmL3NpVSqri7IjAFcGJOcT1+RgkVjIWr267 IDRYOE/owHwUBcT5E6bGlACrYMD99d9ADaUSJk7cRL0Z3uC8SpB3cDWR2qUWGFs6AqfsBjH6yqaA 3MOvxdCklCNZPpYUF+BO3BWmUFSeBEHerwXFUhVJEic6aHgh2/pslRIi4HByja1VFpYwVXlSCQ2j T2dA6RhcyVEO8ka2O1RYhlHSFXdYIh8VZEJTPLwM2m5gWtwB+1AtUbgxXILa62AEF/0bxiDSBwpZ aTC3IyZ7Ao7KW3eWHKKKS9965lpzKAK1xRp8YUHcDUpIOMD1Cplit/lq0Q17jTfXThSH3kIPEy2U AAABAGHwvIaTJQMjLAQZKRcubRNtK8nKYpyBEJvXFc12CmBBZjc7+de2WySoOVHvtVlUdjT+AYPP +OXc4oAF7LNOGBrTAflZV402/IF7BSpYQFx9LcfpZcAu4jOiXO1Q9U8LNogExa0qNQP+weZqDxSg 8DpUFNV2joNAkA3I/wBiNC3l3VMBHEOrBrUtudNdEd6kAVeukX89gJyMAErTwVbZFhlg51FQDHcd 8XfSv+ItADGk/tEFmZky2CZSUWJ548pq9i4aOWJ6lR57GDqeJpuQ4ta7Z85mdlRIMMNViahA7ie7 UNmCHeFRsOHvZauR+7vRV9XiDvWraPNaOwakbn5JXg4taeIVrjfpV6/jewa94lmFSMzkDu0+Tcq2 gCpIL4r3VKihvgehFOFJerLsCWCo9ncDWYpaAMTl6vyhW+Vs8304DoCLEnwL02NqSFWSYP560Zc4 BAGRtaIN4B0alkFxGm7SpB3QLUR2qSY3FdlTtgMYvWVZaMYfkIuU4Vcq4Oi5Lh+1B3exnXv3ml73 4/pV5DiqvQcX5X1C2piw7VGokx0CZ0qKTcRnrFR+JhLci3WoWMXEvUt+N1QU07hfum6fpJATYuFU LKKG5tsObB/FkRQEqQknGB6hUzfbx+a0QV7lN91OFJWC6AP2h3vinxSNzUHeGyXB7yoJuHPo/The KRc+K+aBpyeWtL7wK9HtlFRc6Nx7zUHZ3qB/FZqiIwo2och2P5KSbUQNA+kzOWRIl40PYoNjNM8u n0t/M1L8gxcqXJnEvd6zdNnvN/6XMKIjCY0OkNhZBli50Sg+P5YPL6FKWXhGtAJ3cCHK90rkhQyQ uNvvN/6TMC1pdyQ0m5fKdB/1xpUewshzHZCk/abuVHYs3+U/aix3nDm2a0XTbhI9P7RatmC0X1Kh 9zqTbpUm94nXbNKVKmLWuwAElGqGPAqbhgsAFtBh32e83/pM3qZOyd8iCMcIW0JDTCxeQ/KRYn/w Kzbn+pVpUWCMC1tutRAbvS+ahZHIdUqHkXDxJqLvGB90UBPFd2aESRHh/IbI+QVM2Hgzd6l5Pd2E qcEMIw1Sr04HgB5qVEXFdTU+OL5OgWUqsrLsBvFyU8ilVPi7mQ8xTQgxFly/U0fK0AQBXqN+z3m/ 9Jm9TJ+CSQ1JrXfrqFTylwDwNSTgoXpNmtS8YL4frKlQVeCH4TF1ah6V0VD9a74G96uNOIvFB4nH 86DoPX+FK4+VC8C4H4q/eSDtXZAXZrWIHmk544z8Ugn/AFAqIbRgtF+lRATFWpjtUUK4zHQgrK0L Gnw9Rv2e83/pM3qZP8OUhBGtTsZcfxqkuYj5VPe5G6gX/jnZrWrDxXoocQq6/Y8avFuC+ab9ygfN JbGoS7mQq4uYjzWPziNL39qurW6btT2lzhQOmGd1qOUsyaFRaFGOkTFQM2YkesUAEBB/B6jfs95v /SZvUyfhe+fhBLV7/YwDCd/OoIJZT1hUEbzBoY71GD7h3BJUFKuED0aijd6n+jdQgkRMtiQtlQLu l/Kkw/BavBpUUPuUOyk04wiQI77z5eo37Peb/wBHPxJWYSNDrUXMSS5RuorrJCOYHaOkoG8bGnAJ JZBNyOPCpYDM7vg/JN7naomMGChrVyI5/wAVfXlnZKTP9EszIVmguDAuRu+KMnRoJeDbNYocaibz LUiUtmsLE3jmbJGrocQCbALquzz7YisWb3FpPlCZBRMbyaRBCEHdTa3h3t9F2S5S1HLjcCgUbIzi JxV7fIJkjliLAcJZ2HTcdwVY1+jBEJm4bjk/lRgVNaNCboxeO5MSoR3sktsnDn1o6QkiSJtAQEbx KlV9vA6hDU4uu+fKnS7pC1CVJQGZOzU9Cb/KSr3nvumtLleKV+UKszFwKjrmQgCfggDCiDupjCwY szeOw25EAEq0wBoV5Ww937ElShkq+xvJtsq6S7+7NQsTmroUzErFYBVvjZd4uGjm1k/QRp8pouJB nhC2rMc0lhm4GR12OoJBC4wMt/T6W4s4BoMSpzEYt3DfF+yRSGVsvNZQ9Qfy/ajgzxdBv5UIkjI4 n8yCauJQ61cY4flRJAXJDp/Jmxk+6hlTXdweBoBLcLfW8RTVImWXnTlkQBKtXixyx4zXhQHGhoB9 Ldycs1WBUgws2Thnm/Y3XIWI57XiFMRouqCDjHWIdqixXFA9GKjBawFqSVCzbhI6TQBKEy/pRI+8 e6paamEnuqVEMEBqzpUqbpQ+hFTg1wTUW60sT71K83YGVrmrSkr5CwnJoy5EgYRpZbhe+M140Clp aRPpI8kTcd5yPyp4KmlWibL+4HeuFQRDbAtMsXPpR05IAQBU4if6hfzqW3Nk6PyphCOB0WOlZJ4b u+DE8QOyo+44N3zV4AzvYrW+Z2oP2g41jFxKYGcDQwlwbxRibCwcF6sWuIPFFj86F6gPgrWhSmjf Pea99h3FSUY4KO9SpLes7QVAKuBUdJLtbMFRyFeC6FmtRMR/wDytZCQY0qWJiII4Qtq2eNDYcC8z OmxVrAtXmJlv6/ST8QVmknU6VFzAkuJb6HqASxmF+SdqvBJUqzW+X6wqdUvHNDVuXNx5h8VII3Ga lTNgb0+a7uHsrSYnikY4oR/CC3C1qbrXW9PwrUa91qG5ePlURm3lYqBcgJ81Gsix0CYoKITc9nzf IgIgFaDjDOxobzuKmWn0mZiLRd4xOk1BbUP5tVQmtaxeK1cvxpvXqZUp7WmyoG72MquJeu6tMovF adSUAXAfzEOmxYVw5rbyz2e83/pc0VUuU2OZuaFAQWmDw38vox7XIgObRTT2J2cBv4tJIGSlW9dn vN/6TMGCSCoFib+VMo2xw0CUDIjCUYM+CMr3WalmeBmfB5igL9gxp/eAQBxNMu50iQe7wj9qwDWx McAWGwgUIsZrFjHjs95v/SZvUyajmzJ4beU8HfyAc7nSl55iVsLk+JWlQIf/AKRDrSIA3ztH9qPE 2CmpJRBaGDHpNDJJ/UzIkQ1qUlJhM7qlzDDA3Nt0qfRLmQdjSpoV36QINqqD/wCNi8imFw23SZYu dAMAAAwt2e83/pM3qZO1QqYMa1NvWD023WpUPu7E2a06gpitV3wjLD9AagY4w7iNRujuyV6H5vmm 3DM3vTQDl5rXjL2avTiHQmHx/Oh8XtlWbqI43D86ubgvyq7OB/TXYJqE9sONIuHHe1NbdHepMCcP IGp2QN4o6FZkURdpZFuUrUUocaHRt0p7OP8AKflQIH/abuUbfUb9nvN/6TN6mT8kEhJKlVFeB1CG pJncF3Vb0HdA1HxU9MOG6CpWyt47zWF/u3ilYRbkj+ZmFs97VGzxxUOrUVCOJNBWoBA3FexUQpYg Pmo1AMXpbNKyfkY0+XqN+z3m/wDSZvUyfi0N7VjdKk8qhh1vF2UbbLhJp8gILyGtfv8AKvXK4VfI 8D5q5OC/elrh4VO4PWVek/KDxeLq8uK/avPy+avR8XcauD8W7laeG8UAEAHDaoEtTsyXoPQW1zec ZqKcDLAYfM+XqN+z3m/9HACLFwqGsGJcDZOvwUqAlugxrSDBALRxnZnGhVpUaFGEew1DA29Fo1YA Xe+FPNR8jkDvV7vu8Yau5cb3FWXdmSdD5SF9N6Li1k+AJ2wQPIChvgwrS0TulS2Uo9g03tMFMbri GjRuCtFYtThhiPO1AAATCUToD1+RFM6kLV7ddkAosXBf0aLQERcT5E6bGlBCrYMD99aNsMokTJ23 qQHW4pfzqVWsAA8NSiLgKt0jWpyLMWdxpKHT1E+IDiLQjUGZ/uUL8JpJgtP6ColBgBSrerRlyJEY RpgDQr4tj02Z8VrSyiNtklXljJv32WVeQ01bVqGWAgyVZl3f5a+KjU5izoQVdNXQHI+LIzlpn8jN qGoGhA/ajuoNwYrkFtFTzAgifo3/ABBpA4U29pktyMmey0Jam1PLDlR6tvNtzLTpzosmYEafFBIS SpW0d88VMW1m7UrVTvM1rAJRHOyGI5xfQAQEB8URnJVt3JhSblwapZbti0eCtWTWBi71zdjQQYQA 3SYVdIe/y1QkkYyPVKyTgIP4AQP/AMMu5xQ4S2Xx4NeNLj2ZZXNpdu2Bq7jOmrAQFx7GeP0oIAiQ jjSjatWW3rCzKocmYgnhCzYWDMWtKihHJ6iNZqHxYh8DpULaH/BQo0JLkZP7EQJld1TATxTqwVLj cGLoR3qSlWJpF/PYdYyAJWmJK2wbDLBzqDRu+cd9PqAqZAyPJpALePreIqaE3+w8LWRGW7tsoVvb sqIAzDVUmoAN3gvd7UqMzQ7gqJlMl7LVyB7j+K7VzurUtXmtMwtAbkfk3BcWtJFea6Uz+9XkufsK 9wFnFSsjwPdp8m519AFSgS7p8qkxZenoEFIkJvVnYCsBK4VHJng6jfypZ4gfl+UGIDayXmt+tUL9 4g8mpRR4joLNKk3d4NZFSyJhbOgO9TMgMYfdUobufu+QpcpVyPgqLo+CoC73M69880re3H9qvY8X Tem4vyBWAlyqBtbFh1io1g2OgTOlR6HiK9YqNHLzTLWtAEiYDU2/axou4TUpPuMT1iplW7/JVeng T3GneuGRWI6B9STy0G98Y+KSues7NHQS86C7hzaM0hKwD4jQ+kB5a0+CKeu2yioeXHttUHHuJYf+ KH//2Q== "
         id="image8344"
         x="57.169743"
         y="155.71597"
         clip-path="url(#clipPath8452)"
         transform="matrix(0.76766677,0,0,0.76766677,59.670765,-1.329014)"
         style="display:none;stroke:#031d3a;stroke-opacity:1" />
      <path
         style="display:none;fill:#052f5f;fill-opacity:1;stroke:#031d3a;stroke-width:0.0649958;stroke-opacity:1"
         d="m 121.18773,150.18817 c -4.05084,-0.25303 -7.01298,-1.0335 -8.14261,-2.1454 -0.52285,-0.51465 -0.52776,-0.54446 -0.50461,-3.06079 l 0.0195,-2.11761 0.19712,-0.31973 c 0.11553,-0.18739 0.36251,-0.44081 0.59667,-0.61222 0.21976,-0.16086 0.39956,-0.3071 0.39956,-0.32498 0,-0.0179 -0.1798,-0.16411 -0.39956,-0.32497 -0.23416,-0.17142 -0.48114,-0.42484 -0.59667,-0.61222 l -0.19712,-0.31973 -0.0195,-2.11761 c -0.0137,-1.48554 0.003,-2.20026 0.0574,-2.3945 0.0935,-0.33668 0.49143,-0.80341 0.87847,-1.03023 0.15733,-0.0922 0.286,-0.18679 0.28594,-0.21021 -6e-5,-0.0234 -0.13141,-0.12551 -0.29187,-0.22689 -0.38408,-0.24265 -0.79518,-0.71625 -0.87681,-1.01013 -0.0377,-0.13579 -0.0649,-1.11582 -0.0643,-2.31532 10e-4,-2.39112 0.007,-2.42166 0.58633,-2.96593 2.44921,-2.30206 13.55233,-2.88597 18.85782,-0.99174 1.21735,0.43463 2.14356,1.11124 2.31394,1.69036 0.0544,0.18502 0.0787,0.91229 0.0787,2.35826 v 2.09073 l -0.1599,0.31555 c -0.63317,1.2495 -3.33233,2.14715 -7.67209,2.55146 -1.18054,0.10999 -4.97012,0.1099 -6.1746,-1.3e-4 -2.03819,-0.18621 -3.64089,-0.46731 -4.96048,-0.87002 l -0.67075,-0.2047 -0.41603,0.20516 c -0.81616,0.40246 -1.13542,0.84447 -0.89902,1.24467 0.56906,0.96334 3.66467,1.81441 7.59581,2.08829 1.41496,0.0986 4.85624,0.0432 6.14253,-0.0989 3.75887,-0.41518 6.43458,-1.36836 6.43458,-2.29222 0,-0.31824 0.49387,-0.46316 0.67877,-0.19918 0.0863,0.12318 0.10118,0.44036 0.10118,2.15357 0,1.35193 -0.025,2.09257 -0.0764,2.26424 -0.0942,0.31456 -0.47839,0.76036 -0.86649,1.00554 -0.16047,0.10138 -0.29176,0.19895 -0.29176,0.21682 0,0.0179 0.13129,0.11545 0.29176,0.21682 0.3881,0.24519 0.77225,0.69099 0.86649,1.00555 0.0517,0.17261 0.0762,0.92532 0.0758,2.32744 -6.5e-4,2.03926 -0.003,2.07757 -0.15366,2.40095 -0.57389,1.23243 -3.44528,2.20309 -7.5802,2.56244 -1.08241,0.0941 -4.3667,0.1348 -5.44385,0.0675 z m 4.17643,-0.78313 c 4.2171,-0.22617 7.59482,-1.11872 8.12681,-2.14748 0.074,-0.14315 0.0952,-0.46617 0.0952,-1.45466 0,-0.69886 -0.0111,-1.27065 -0.0246,-1.27065 -0.0136,0 -0.19477,0.10246 -0.40272,0.22768 -1.27802,0.76959 -3.9055,1.35988 -7.07967,1.59055 -1.94841,0.14159 -4.99903,0.0695 -6.98705,-0.16518 -2.35256,-0.27768 -4.53919,-0.8739 -5.4745,-1.49271 -0.13329,-0.0882 -0.25924,-0.16034 -0.27988,-0.16034 -0.0206,0 -0.0286,0.61266 -0.0176,1.36145 l 0.0199,1.36145 0.22132,0.2282 c 0.55675,0.57404 2.24258,1.18196 4.23154,1.5259 2.27378,0.39319 4.98101,0.53471 7.57136,0.39579 z m -1.9398,-1.41688 c -0.15624,-0.17264 -0.13207,-0.37239 0.0637,-0.52638 0.23946,-0.18836 1.24473,-0.19965 1.41107,-0.0159 0.15353,0.16965 0.13578,0.43897 -0.0369,0.55991 -0.22329,0.1564 -1.29222,0.14326 -1.43787,-0.0177 z m -3.97481,0.008 c -1.39612,-0.12691 -3.66306,-0.52697 -3.84589,-0.67871 -0.14449,-0.11991 -0.10736,-0.49399 0.0599,-0.60335 0.13135,-0.0859 0.24222,-0.0765 1.08868,0.092 1.01478,0.20202 2.13507,0.35665 3.11683,0.43022 0.51828,0.0388 0.63786,0.0694 0.7637,0.19526 0.1834,0.1834 0.1885,0.31081 0.0192,0.4801 -0.13146,0.13145 -0.44418,0.15343 -1.20242,0.0845 z m 6.69998,-0.11791 c -0.16293,-0.12328 -0.16466,-0.45958 -0.003,-0.5778 0.139,-0.10164 1.38436,-0.25867 1.54934,-0.19536 0.1301,0.0499 0.23561,0.23006 0.23561,0.40224 0,0.2237 -0.20571,0.32448 -0.81245,0.39804 -0.74116,0.0898 -0.81777,0.0877 -0.96952,-0.0271 z m 2.50301,-0.35048 c -0.16674,-0.16674 -0.17543,-0.4053 -0.0199,-0.54607 0.0639,-0.0578 0.41942,-0.16972 0.79003,-0.24864 l 0.67383,-0.14348 0.15241,0.17719 c 0.35975,0.41823 0.0716,0.61954 -1.22265,0.85403 -0.19104,0.0346 -0.26434,0.0164 -0.37373,-0.093 z m -1.82597,-2.01603 c 2.40392,-0.24683 4.64917,-0.76154 5.74532,-1.31705 0.75839,-0.38435 1.09716,-0.80061 0.94687,-1.16346 -0.10753,-0.2596 -0.45125,-0.54772 -0.94226,-0.78985 l -0.41119,-0.20276 -0.67075,0.20511 c -2.14397,0.65561 -4.67073,0.95503 -8.04777,0.95364 -3.3914,-0.001 -5.95313,-0.30479 -8.05071,-0.95346 l -0.67368,-0.20833 -0.47662,0.24535 c -0.50693,0.26096 -0.93834,0.66989 -0.93834,0.88945 0,0.77401 1.84477,1.58463 4.7122,2.07061 0.66936,0.11344 2.0303,0.26515 3.18479,0.355 0.63453,0.0494 4.95051,-0.0153 5.62214,-0.0842 z m -1.29992,-3.12689 c 3.21525,-0.19954 5.7925,-0.72828 7.142,-1.46523 0.89837,-0.49059 0.91748,-0.53508 0.91748,-2.13664 0,-0.69886 -0.0174,-1.27065 -0.0387,-1.27065 -0.0213,0 -0.11635,0.0548 -0.21124,0.12176 -1.02137,0.72084 -3.30139,1.30016 -6.47711,1.64574 -1.25066,0.1361 -5.76207,0.11458 -7.14664,-0.0341 -2.84161,-0.30512 -5.16475,-0.91346 -6.15504,-1.61176 -0.0949,-0.0669 -0.18994,-0.12166 -0.21123,-0.12166 -0.0213,0 -0.0387,0.57179 -0.0387,1.27065 0,1.59994 0.0214,1.65007 0.90995,2.13003 2.05676,1.11101 6.92158,1.74414 11.30926,1.47184 z m -2.03894,-1.36773 c -0.20638,-0.16234 -0.22014,-0.38526 -0.0342,-0.55366 0.10792,-0.0977 0.2593,-0.12863 0.71878,-0.14667 0.65388,-0.0257 0.83439,0.0566 0.83439,0.38033 0,0.28003 -0.16836,0.36841 -0.78778,0.41358 -0.50377,0.0367 -0.57753,0.0273 -0.7312,-0.0936 z m -4.42814,-0.0676 c -1.78318,-0.22013 -3.17048,-0.47286 -3.39972,-0.61936 -0.1198,-0.0766 -0.14592,-0.1437 -0.12999,-0.33413 0.0302,-0.36097 0.18863,-0.41031 0.84835,-0.26416 0.74687,0.16545 2.61766,0.43102 3.39632,0.48213 0.36224,0.0238 0.71251,0.0818 0.79126,0.13118 0.19918,0.12477 0.24717,0.32748 0.12257,0.51764 -0.0976,0.14902 -0.13893,0.15878 -0.6391,0.15109 -0.2941,-0.005 -0.73945,-0.0335 -0.98969,-0.0644 z m 7.10353,-0.0736 c -0.1892,-0.14872 -0.20345,-0.35766 -0.0358,-0.52529 0.11591,-0.11591 0.25682,-0.16458 0.57275,-0.19784 0.23046,-0.0243 0.53601,-0.06 0.679,-0.0794 0.2063,-0.028 0.29018,-0.007 0.40623,0.1018 0.17628,0.16519 0.18878,0.3983 0.0291,0.54281 -0.21217,0.19202 -1.45648,0.31098 -1.65125,0.15787 z m 2.48588,-0.38598 c -0.16248,-0.17441 -0.1681,-0.32227 -0.0188,-0.49456 0.15085,-0.17406 1.32789,-0.43621 1.51322,-0.33702 0.28991,0.15515 0.31352,0.51474 0.0433,0.65935 -0.14776,0.0791 -1.10276,0.30994 -1.294,0.31281 -0.0612,9.2e-4 -0.17085,-0.0623 -0.24374,-0.14058 z m -3.12233,-5.12358 c 3.64175,-0.22073 6.62548,-0.9177 7.66184,-1.78974 0.37565,-0.31609 0.39764,-0.41635 0.39764,-1.81313 0,-1.16641 -0.0337,-1.41411 -0.16357,-1.2039 -0.075,0.12135 -1.02864,0.56434 -1.65631,0.76939 -1.20152,0.39252 -2.65765,0.68232 -4.51721,0.89903 -1.42171,0.16567 -6.05604,0.16658 -7.53951,10e-4 -1.97937,-0.2203 -3.49902,-0.52253 -4.7122,-0.93716 -0.53572,-0.1831 -1.46122,-0.6274 -1.52632,-0.73273 -0.13097,-0.21192 -0.16357,0.0425 -0.16357,1.27681 v 1.34356 l 0.29309,0.28083 c 0.89792,0.86035 3.68308,1.60785 6.85645,1.84017 1.89733,0.1389 3.51311,0.15975 5.06967,0.0654 z m -2.07085,-1.35473 c -0.16252,-0.16252 -0.17614,-0.31705 -0.0445,-0.50496 0.0792,-0.11303 0.19097,-0.14219 0.68949,-0.17982 0.69348,-0.0523 0.90592,0.0274 0.90592,0.33986 0,0.34456 -0.1089,0.40619 -0.78952,0.44679 -0.57588,0.0344 -0.63275,0.0267 -0.76137,-0.10187 z m -4.07347,-0.0431 c -1.70034,-0.16878 -3.44672,-0.47482 -3.7159,-0.65119 -0.2735,-0.17921 -0.12692,-0.67968 0.19907,-0.67968 0.0608,0 0.46794,0.0721 0.90483,0.16026 0.87594,0.17672 1.97453,0.32713 3.06821,0.42006 0.61333,0.0521 0.73014,0.0806 0.8287,0.20234 0.0631,0.0779 0.11472,0.18364 0.11472,0.23493 0,0.1355 -0.29932,0.41358 -0.43577,0.40484 -0.0642,-0.004 -0.49792,-0.0453 -0.96386,-0.0916 z m 6.70047,-0.17541 c -0.1307,-0.18661 -0.12749,-0.26363 0.0185,-0.44395 0.10099,-0.12471 0.22553,-0.16023 0.7962,-0.22703 0.61463,-0.072 0.69135,-0.0689 0.83898,0.0333 0.20659,0.14305 0.24115,0.39521 0.0748,0.54575 -0.13568,0.12279 -0.74002,0.23293 -1.28979,0.23505 -0.27599,0.001 -0.35599,-0.025 -0.43872,-0.14314 z m 2.57811,-0.28171 c -0.0795,-0.0556 -0.14445,-0.16705 -0.14445,-0.24756 0,-0.2909 0.14448,-0.3788 0.87566,-0.5327 l 0.70108,-0.14756 0.15407,0.15407 c 0.3307,0.3307 0.12409,0.57713 -0.62603,0.74672 -0.67528,0.15267 -0.77687,0.15553 -0.96033,0.027 z m -1.44437,-2.07148 c 3.37288,-0.38776 5.87663,-1.19536 6.26893,-2.02208 0.19372,-0.40823 -0.0386,-0.74005 -0.80928,-1.15601 -2.70622,-1.46057 -9.6604,-1.96637 -14.85154,-1.08018 -2.49419,0.42578 -4.31124,1.19944 -4.49002,1.91173 -0.24774,0.98709 3.08465,2.09168 7.34984,2.43625 1.11121,0.0898 5.49448,0.0296 6.53207,-0.0897 z"
         id="path8456" />
      <text
         xml:space="preserve"
         style="font-size:15.0088px;line-height:1.25;font-family:monospace;-inkscape-font-specification:monospace;fill:#031d3a;fill-opacity:1;stroke-width:0.375221"
         x="102.2737"
         y="81.085968"
         id="text25771"><tspan
           sodipodi:role="line"
           id="tspan25769"
           style="fill:#031d3a;fill-opacity:1;stroke-width:0.375221"
           x="102.2737"
           y="81.085968">{}</tspan></text>
    </g>
    <ellipse
       style="display:inline;fill:none;fill-opacity:0.254425;stroke:#031d3a;stroke-width:2.71241;stroke-linejoin:bevel;stroke-miterlimit:4;stroke-dasharray:none;stroke-opacity:1"
       id="path846-6"
       cx="148.35144"
       cy="92.483238"
       rx="16.144001"
       ry="16.143799" />
    <path
       style="display:inline;fill:none;stroke:#031d3a;stroke-width:2.0195;stroke-linecap:butt;stroke-linejoin:miter;stroke-miterlimit:4;stroke-dasharray:none;stroke-opacity:1"
       d="m 124.11538,117.54904 12.90484,-13.60775"
       id="path8254"
       sodipodi:nodetypes="cc" />
    <text
       xml:space="preserve"
       style="font-size:28.7061px;line-height:1.25;font-family:monospace;-inkscape-font-specification:monospace;display:inline;fill:#031d3a;fill-opacity:1;stroke:#031d3a;stroke-width:0.71765;stroke-opacity:1"
       x="5.0565252"
       y="-77.427292"
       id="text2998-3"
       transform="scale(-1)"><tspan
         sodipodi:role="line"
         id="tspan2996-6"
         style="fill:#031d3a;fill-opacity:1;stroke:#031d3a;stroke-width:0.71765;stroke-opacity:1"
         x="5.0565252"
         y="-77.427292">{}</tspan></text>
    <circle
       style="display:inline;fill:none;fill-opacity:0.254425;stroke:#031d3a;stroke-width:3.6062;stroke-linejoin:bevel;stroke-opacity:1"
       id="path846-7"
       cx="22.339008"
       cy="-85.99147"
       r="23.073862"
       transform="scale(-1)" />
    <text
       xml:space="preserve"
       style="font-size:10.9057px;line-height:1.25;font-family:monospace;-inkscape-font-specification:monospace;display:inline;fill:#031d3a;fill-opacity:1;stroke:#031d3a;stroke-width:0.272642;stroke-opacity:1"
       x="55.728462"
       y="-108.36456"
       id="text25771-5"
       transform="scale(-1)"><tspan
         sodipodi:role="line"
         id="tspan25769-3"
         style="fill:#031d3a;fill-opacity:1;stroke-width:0.272642"
         x="55.728462"
         y="-108.36456">{}</tspan></text>
    <ellipse
       style="display:inline;fill:none;fill-opacity:0.254425;stroke:#031d3a;stroke-width:1.97089;stroke-linejoin:bevel;stroke-miterlimit:4;stroke-dasharray:none;stroke-opacity:1"
       id="path846-6-5"
       cx="62.294216"
       cy="-111.61815"
       rx="11.730521"
       ry="11.730374"
       transform="scale(-1)" />
    <path
       style="display:inline;fill:none;stroke:#031d3a;stroke-width:1.46741;stroke-linecap:butt;stroke-linejoin:miter;stroke-miterlimit:4;stroke-dasharray:none;stroke-opacity:1"
       d="m -44.683853,93.404916 -9.376884,9.887634"
       id="path8254-6"
       sodipodi:nodetypes="cc" />
    <text
       xml:space="preserve"
       style="font-size:53.4493px;line-height:1.25;font-family:monospace;-inkscape-font-specification:monospace;display:inline;fill:#031d3a;fill-opacity:1;stroke:#031d3a;stroke-width:1.33623;stroke-opacity:1"
       x="48.8148"
       y="233.06296"
       id="text2998-36"><tspan
         sodipodi:role="line"
         id="tspan2996-0"
         style="fill:#031d3a;fill-opacity:1;stroke:#031d3a;stroke-width:1.33623;stroke-opacity:1"
         x="48.8148"
         y="233.06296">{}</tspan></text>
    <circle
       style="display:inline;fill:none;fill-opacity:0.254425;stroke:#031d3a;stroke-width:6.71457;stroke-linejoin:bevel;stroke-opacity:1"
       id="path846-62"
       cx="-217.11685"
       cy="80.993973"
       r="42.962429"
       transform="rotate(-90)" />
    <text
       xml:space="preserve"
       style="font-size:20.3058px;line-height:1.25;font-family:monospace;-inkscape-font-specification:monospace;display:inline;fill:#031d3a;fill-opacity:1;stroke:#031d3a;stroke-width:0.507647;stroke-opacity:1"
       x="-2.7593396"
       y="169.9469"
       id="text25771-6"><tspan
         sodipodi:role="line"
         id="tspan25769-1"
         style="fill:#031d3a;fill-opacity:1;stroke-width:0.507647"
         x="-2.7593396"
         y="169.9469">{}</tspan></text>
    <ellipse
       style="display:inline;fill:none;fill-opacity:0.254425;stroke:#031d3a;stroke-width:3.6697;stroke-linejoin:bevel;stroke-miterlimit:4;stroke-dasharray:none;stroke-opacity:1"
       id="path846-6-8"
       cx="-163.88881"
       cy="9.4657784"
       rx="21.841671"
       ry="21.841398"
       transform="rotate(-90)" />
    <path
       style="display:inline;fill:none;stroke:#031d3a;stroke-width:2.73224;stroke-linecap:butt;stroke-linejoin:miter;stroke-miterlimit:4;stroke-dasharray:none;stroke-opacity:1"
       d="M 43.377943,196.67854 24.967645,179.21922"
       id="path8254-7"
       sodipodi:nodetypes="cc" />
    <path
       style="display:inline;fill:none;stroke:#031d3a;stroke-width:1.632;stroke-linecap:butt;stroke-linejoin:miter;stroke-miterlimit:4;stroke-dasharray:none;stroke-opacity:1"
       d="M 60.847505,120.65778 -0.99301874,97.131745"
       id="path8254-7-9"
       sodipodi:nodetypes="cc" />
    <text
       xml:space="preserve"
       style="font-size:20.9746px;line-height:1.25;font-family:monospace;-inkscape-font-specification:monospace;display:inline;fill:#031d3a;fill-opacity:1;stroke:#031d3a;stroke-width:0.524363;stroke-opacity:1"
       x="37.596119"
       y="-197.46225"
       id="text2998-36-9"
       transform="scale(-1)"><tspan
         sodipodi:role="line"
         id="tspan2996-0-2"
         style="fill:#031d3a;fill-opacity:1;stroke:#031d3a;stroke-width:0.524363;stroke-opacity:1"
         x="37.596119"
         y="-197.46225">{}</tspan></text>
    <circle
       style="display:inline;fill:none;fill-opacity:0.254425;stroke:#031d3a;stroke-width:2.63493;stroke-linejoin:bevel;stroke-opacity:1"
       id="path846-62-0"
       cx="203.71982"
       cy="50.223873"
       r="16.859304"
       transform="rotate(90)" />
    <text
       xml:space="preserve"
       style="font-size:7.96841px;line-height:1.25;font-family:monospace;-inkscape-font-specification:monospace;display:inline;fill:#031d3a;fill-opacity:1;stroke:#031d3a;stroke-width:0.199211;stroke-opacity:1"
       x="26.701914"
       y="-230.53647"
       id="text25771-6-2"
       transform="scale(-1)"><tspan
         sodipodi:role="line"
         id="tspan25769-1-3"
         style="fill:#031d3a;fill-opacity:1;stroke-width:0.199211"
         x="26.701914"
         y="-230.53647">{}</tspan></text>
    <ellipse
       style="display:inline;fill:none;fill-opacity:0.254425;stroke:#031d3a;stroke-width:1.44006;stroke-linejoin:bevel;stroke-miterlimit:4;stroke-dasharray:none;stroke-opacity:1"
       id="path846-6-8-7"
       cx="232.91382"
       cy="31.499296"
       rx="8.5711021"
       ry="8.5709944"
       transform="rotate(90)" />
    <path
       style="display:inline;fill:none;stroke:#031d3a;stroke-width:1.07218;stroke-linecap:butt;stroke-linejoin:miter;stroke-miterlimit:4;stroke-dasharray:none;stroke-opacity:1"
       d="m -44.807116,220.04645 7.224567,6.85139"
       id="path8254-7-5"
       sodipodi:nodetypes="cc" />
    <path
       style="display:inline;fill:none;stroke:#031d3a;stroke-width:1.632;stroke-linecap:butt;stroke-linejoin:miter;stroke-miterlimit:4;stroke-dasharray:none;stroke-opacity:1"
       d="M -44.28739,187.60365 -56.72173,121.92934"
       id="path8254-7-2"
       sodipodi:nodetypes="cc" />
    <path
       style="display:inline;fill:none;stroke:#031d3a;stroke-width:1.632;stroke-linecap:butt;stroke-linejoin:miter;stroke-miterlimit:4;stroke-dasharray:none;stroke-opacity:1"
       d="M -7.6052331,149.05503 -56.72173,121.92934"
       id="path8254-7-28"
       sodipodi:nodetypes="cc" />
    <path
       style="display:inline;fill:none;stroke:#031d3a;stroke-width:1.632;stroke-linecap:butt;stroke-linejoin:miter;stroke-miterlimit:4;stroke-dasharray:none;stroke-opacity:1"
       d="M 60.036672,131.60831 23.366245,145.6004"
       id="path8254-7-97"
       sodipodi:nodetypes="cc" />
    <path
       style="display:inline;fill:none;stroke:#031d3a;stroke-width:1.632;stroke-linecap:butt;stroke-linejoin:miter;stroke-miterlimit:4;stroke-dasharray:none;stroke-opacity:1"
       d="m 122.95573,203.43859 24.0467,-94.44697"
       id="path8254-7-3"
       sodipodi:nodetypes="cc" />
    <path
       style="display:inline;fill:none;stroke:#031d3a;stroke-width:1.632;stroke-linecap:butt;stroke-linejoin:miter;stroke-miterlimit:4;stroke-dasharray:none;stroke-opacity:1"
       d="M 132.7768,92.204707 0.81393145,83.405882"
       id="path8254-7-6"
       sodipodi:nodetypes="cc" />
  </g>
</svg>
